Lab 2/Lab 2 ex1 - 16bit CLA/simulation/qsim/cla_16bit.msim.vcd
$comment
	File created using the following command:
		vcd file cla_16bit.msim.vcd -direction
$end
$date
	Tue Feb 12 23:20:13 2019
$end
$version
	ModelSim Version 10.5b
$end
$timescale
	1ps
$end

$scope module cla_16bit_vhd_vec_tst $end
$var wire 1 ! A [15] $end
$var wire 1 " A [14] $end
$var wire 1 # A [13] $end
$var wire 1 $ A [12] $end
$var wire 1 % A [11] $end
$var wire 1 & A [10] $end
$var wire 1 ' A [9] $end
$var wire 1 ( A [8] $end
$var wire 1 ) A [7] $end
$var wire 1 * A [6] $end
$var wire 1 + A [5] $end
$var wire 1 , A [4] $end
$var wire 1 - A [3] $end
$var wire 1 . A [2] $end
$var wire 1 / A [1] $end
$var wire 1 0 A [0] $end
$var wire 1 1 B [15] $end
$var wire 1 2 B [14] $end
$var wire 1 3 B [13] $end
$var wire 1 4 B [12] $end
$var wire 1 5 B [11] $end
$var wire 1 6 B [10] $end
$var wire 1 7 B [9] $end
$var wire 1 8 B [8] $end
$var wire 1 9 B [7] $end
$var wire 1 : B [6] $end
$var wire 1 ; B [5] $end
$var wire 1 < B [4] $end
$var wire 1 = B [3] $end
$var wire 1 > B [2] $end
$var wire 1 ? B [1] $end
$var wire 1 @ B [0] $end
$var wire 1 A Cin $end
$var wire 1 B Cout $end
$var wire 1 C S [15] $end
$var wire 1 D S [14] $end
$var wire 1 E S [13] $end
$var wire 1 F S [12] $end
$var wire 1 G S [11] $end
$var wire 1 H S [10] $end
$var wire 1 I S [9] $end
$var wire 1 J S [8] $end
$var wire 1 K S [7] $end
$var wire 1 L S [6] $end
$var wire 1 M S [5] $end
$var wire 1 N S [4] $end
$var wire 1 O S [3] $end
$var wire 1 P S [2] $end
$var wire 1 Q S [1] $end
$var wire 1 R S [0] $end

$scope module i1 $end
$var wire 1 S gnd $end
$var wire 1 T vcc $end
$var wire 1 U unknown $end
$var wire 1 V devoe $end
$var wire 1 W devclrn $end
$var wire 1 X devpor $end
$var wire 1 Y ww_devoe $end
$var wire 1 Z ww_devclrn $end
$var wire 1 [ ww_devpor $end
$var wire 1 \ ww_A [15] $end
$var wire 1 ] ww_A [14] $end
$var wire 1 ^ ww_A [13] $end
$var wire 1 _ ww_A [12] $end
$var wire 1 ` ww_A [11] $end
$var wire 1 a ww_A [10] $end
$var wire 1 b ww_A [9] $end
$var wire 1 c ww_A [8] $end
$var wire 1 d ww_A [7] $end
$var wire 1 e ww_A [6] $end
$var wire 1 f ww_A [5] $end
$var wire 1 g ww_A [4] $end
$var wire 1 h ww_A [3] $end
$var wire 1 i ww_A [2] $end
$var wire 1 j ww_A [1] $end
$var wire 1 k ww_A [0] $end
$var wire 1 l ww_B [15] $end
$var wire 1 m ww_B [14] $end
$var wire 1 n ww_B [13] $end
$var wire 1 o ww_B [12] $end
$var wire 1 p ww_B [11] $end
$var wire 1 q ww_B [10] $end
$var wire 1 r ww_B [9] $end
$var wire 1 s ww_B [8] $end
$var wire 1 t ww_B [7] $end
$var wire 1 u ww_B [6] $end
$var wire 1 v ww_B [5] $end
$var wire 1 w ww_B [4] $end
$var wire 1 x ww_B [3] $end
$var wire 1 y ww_B [2] $end
$var wire 1 z ww_B [1] $end
$var wire 1 { ww_B [0] $end
$var wire 1 | ww_Cin $end
$var wire 1 } ww_Cout $end
$var wire 1 ~ ww_S [15] $end
$var wire 1 !! ww_S [14] $end
$var wire 1 "! ww_S [13] $end
$var wire 1 #! ww_S [12] $end
$var wire 1 $! ww_S [11] $end
$var wire 1 %! ww_S [10] $end
$var wire 1 &! ww_S [9] $end
$var wire 1 '! ww_S [8] $end
$var wire 1 (! ww_S [7] $end
$var wire 1 )! ww_S [6] $end
$var wire 1 *! ww_S [5] $end
$var wire 1 +! ww_S [4] $end
$var wire 1 ,! ww_S [3] $end
$var wire 1 -! ww_S [2] $end
$var wire 1 .! ww_S [1] $end
$var wire 1 /! ww_S [0] $end
$var wire 1 0! \Cout~output_o\ $end
$var wire 1 1! \S[0]~output_o\ $end
$var wire 1 2! \S[1]~output_o\ $end
$var wire 1 3! \S[2]~output_o\ $end
$var wire 1 4! \S[3]~output_o\ $end
$var wire 1 5! \S[4]~output_o\ $end
$var wire 1 6! \S[5]~output_o\ $end
$var wire 1 7! \S[6]~output_o\ $end
$var wire 1 8! \S[7]~output_o\ $end
$var wire 1 9! \S[8]~output_o\ $end
$var wire 1 :! \S[9]~output_o\ $end
$var wire 1 ;! \S[10]~output_o\ $end
$var wire 1 <! \S[11]~output_o\ $end
$var wire 1 =! \S[12]~output_o\ $end
$var wire 1 >! \S[13]~output_o\ $end
$var wire 1 ?! \S[14]~output_o\ $end
$var wire 1 @! \S[15]~output_o\ $end
$var wire 1 A! \A[15]~input_o\ $end
$var wire 1 B! \B[15]~input_o\ $end
$var wire 1 C! \A[12]~input_o\ $end
$var wire 1 D! \B[12]~input_o\ $end
$var wire 1 E! \cla_4bit_4|Cin_internal[1]~0_combout\ $end
$var wire 1 F! \cla_4bit_4|Cin_internal[1]~1_combout\ $end
$var wire 1 G! \A[11]~input_o\ $end
$var wire 1 H! \B[11]~input_o\ $end
$var wire 1 I! \A[8]~input_o\ $end
$var wire 1 J! \B[8]~input_o\ $end
$var wire 1 K! \cla_4bit_3|Cin_internal[1]~0_combout\ $end
$var wire 1 L! \cla_4bit_3|Cin_internal[1]~1_combout\ $end
$var wire 1 M! \A[7]~input_o\ $end
$var wire 1 N! \B[7]~input_o\ $end
$var wire 1 O! \A[4]~input_o\ $end
$var wire 1 P! \B[4]~input_o\ $end
$var wire 1 Q! \cla_4bit_2|Cin_internal[1]~0_combout\ $end
$var wire 1 R! \cla_4bit_2|Cin_internal[1]~1_combout\ $end
$var wire 1 S! \A[3]~input_o\ $end
$var wire 1 T! \B[3]~input_o\ $end
$var wire 1 U! \A[0]~input_o\ $end
$var wire 1 V! \B[0]~input_o\ $end
$var wire 1 W! \cla_4bit_1|Cin_internal[1]~0_combout\ $end
$var wire 1 X! \Cin~input_o\ $end
$var wire 1 Y! \cla_4bit_1|Cin_internal[1]~1_combout\ $end
$var wire 1 Z! \A[2]~input_o\ $end
$var wire 1 [! \B[2]~input_o\ $end
$var wire 1 \! \cla_4bit_1|Cin_internal[3]~2_combout\ $end
$var wire 1 ]! \cla_4bit_2|Cin_internal[1]~2_combout\ $end
$var wire 1 ^! \A[6]~input_o\ $end
$var wire 1 _! \B[6]~input_o\ $end
$var wire 1 `! \cla_4bit_2|Cin_internal[3]~3_combout\ $end
$var wire 1 a! \cla_4bit_3|Cin_internal[1]~2_combout\ $end
$var wire 1 b! \A[10]~input_o\ $end
$var wire 1 c! \B[10]~input_o\ $end
$var wire 1 d! \cla_4bit_3|Cin_internal[3]~3_combout\ $end
$var wire 1 e! \cla_4bit_4|Cin_internal[1]~2_combout\ $end
$var wire 1 f! \A[14]~input_o\ $end
$var wire 1 g! \B[14]~input_o\ $end
$var wire 1 h! \cla_4bit_4|Cin_internal[3]~3_combout\ $end
$var wire 1 i! \cla_4bit_4|Cout~0_combout\ $end
$var wire 1 j! \cla_4bit_1|S[0]~0_combout\ $end
$var wire 1 k! \B[1]~input_o\ $end
$var wire 1 l! \A[1]~input_o\ $end
$var wire 1 m! \cla_4bit_1|Cin_internal[2]~3_combout\ $end
$var wire 1 n! \cla_4bit_1|S[2]~1_combout\ $end
$var wire 1 o! \cla_4bit_1|S[3]~2_combout\ $end
$var wire 1 p! \cla_4bit_1|Cout~0_combout\ $end
$var wire 1 q! \A[5]~input_o\ $end
$var wire 1 r! \B[5]~input_o\ $end
$var wire 1 s! \cla_4bit_2|Cin_internal[2]~4_combout\ $end
$var wire 1 t! \cla_4bit_2|S[2]~0_combout\ $end
$var wire 1 u! \cla_4bit_2|S[3]~1_combout\ $end
$var wire 1 v! \cla_4bit_2|Cout~0_combout\ $end
$var wire 1 w! \A[9]~input_o\ $end
$var wire 1 x! \B[9]~input_o\ $end
$var wire 1 y! \cla_4bit_3|Cin_internal[2]~4_combout\ $end
$var wire 1 z! \cla_4bit_3|S[2]~0_combout\ $end
$var wire 1 {! \cla_4bit_3|S[3]~1_combout\ $end
$var wire 1 |! \cla_4bit_3|Cout~0_combout\ $end
$var wire 1 }! \A[13]~input_o\ $end
$var wire 1 ~! \B[13]~input_o\ $end
$var wire 1 !" \cla_4bit_4|Cin_internal[2]~4_combout\ $end
$var wire 1 "" \cla_4bit_4|S[2]~0_combout\ $end
$var wire 1 #" \cla_4bit_4|S[3]~1_combout\ $end
$var wire 1 $" \cla_4bit_3|S\ [3] $end
$var wire 1 %" \cla_4bit_3|S\ [2] $end
$var wire 1 &" \cla_4bit_3|S\ [1] $end
$var wire 1 '" \cla_4bit_3|S\ [0] $end
$var wire 1 (" \cla_4bit_1|S\ [3] $end
$var wire 1 )" \cla_4bit_1|S\ [2] $end
$var wire 1 *" \cla_4bit_1|S\ [1] $end
$var wire 1 +" \cla_4bit_1|S\ [0] $end
$var wire 1 ," \cla_4bit_2|S\ [3] $end
$var wire 1 -" \cla_4bit_2|S\ [2] $end
$var wire 1 ." \cla_4bit_2|S\ [1] $end
$var wire 1 /" \cla_4bit_2|S\ [0] $end
$var wire 1 0" \cla_4bit_4|S\ [3] $end
$var wire 1 1" \cla_4bit_4|S\ [2] $end
$var wire 1 2" \cla_4bit_4|S\ [1] $end
$var wire 1 3" \cla_4bit_4|S\ [0] $end
$upscope $end
$upscope $end
$enddefinitions $end
#0
$dumpvars
1A
0B
0S
1T
xU
1V
1W
1X
1Y
1Z
1[
1|
0}
00!
01!
12!
03!
14!
15!
06!
17!
18!
09!
0:!
0;!
1<!
0=!
1>!
0?!
1@!
0A!
1B!
0C!
1D!
0E!
1F!
1G!
1H!
0I!
1J!
0K!
1L!
1M!
1N!
0O!
0P!
0Q!
0R!
1S!
1T!
0U!
1V!
0W!
1X!
1Y!
1Z!
0[!
1\!
0]!
1^!
1_!
1`!
1a!
0b!
1c!
1d!
1e!
0f!
0g!
0h!
0i!
0j!
1k!
1l!
1m!
0n!
1o!
1p!
1q!
1r!
1s!
1t!
1u!
1v!
0w!
1x!
1y!
0z!
1{!
1|!
0}!
0~!
0!"
0""
1#"
0!
0"
0#
0$
1%
0&
0'
0(
1)
1*
1+
0,
1-
1.
1/
00
11
02
03
14
15
16
17
18
19
1:
1;
0<
1=
0>
1?
1@
1C
0D
1E
0F
1G
0H
0I
0J
1K
1L
0M
1N
1O
0P
1Q
0R
0\
0]
0^
0_
1`
0a
0b
0c
1d
1e
1f
0g
1h
1i
1j
0k
1l
0m
0n
1o
1p
1q
1r
1s
1t
1u
1v
0w
1x
0y
1z
1{
1~
0!!
1"!
0#!
1$!
0%!
0&!
0'!
1(!
1)!
0*!
1+!
1,!
0-!
1.!
0/!
x$"
x%"
0&"
0'"
x("
x)"
1*"
x+"
x,"
x-"
0."
1/"
x0"
x1"
12"
03"
$end
#10000
1"
1#
1$
0%
1&
1(
0)
0+
0.
01
12
04
05
07
08
09
0:
0;
1<
0=
0?
0A
0i
0f
0d
1c
1a
0`
1_
1^
1]
0z
0x
1w
0v
0u
0t
0s
0r
0p
0o
1m
0l
0|
0X!
0B!
1g!
0D!
0H!
0x!
0J!
0N!
0_!
0r!
1P!
0T!
0k!
1f!
1}!
1C!
0G!
1b!
1I!
0M!
0q!
0Z!
0\!
1n!
1z!
02"
1!"
0*"
0o!
1R!
0/"
0s!
0`!
0t!
0a!
0v!
1&"
0y!
0e!
0|!
1h!
0#"
0Y!
1j!
1*"
0m!
1#"
13"
12"
0!"
0z!
1'"
0&"
0u!
1t!
1""
1o!
0p!
1/"
0""
0n!
11!
0@!
1:!
07!
05!
04!
02!
0>!
1;!
13!
1/!
0~
1&!
0)!
0+!
0,!
0.!
0"!
1%!
1-!
14!
1?!
17!
08!
0:!
19!
0;!
1>!
1=!
1@!
12!
1R
0Q
1P
0O
0N
0L
1I
1H
0E
0C
1,!
1!!
1)!
0(!
0&!
1'!
0%!
1"!
1#!
1~
1.!
03!
0?!
15!
1Q
1O
1L
0K
1J
0I
0H
1F
1E
1D
1C
0-!
0!!
1+!
0P
1N
0D
#20000
1%
0&
0(
1)
1+
02
14
15
17
18
19
1:
0<
1?
1'
1,
0-
0/
06
0@
0j
0h
1g
1f
1d
0c
1b
0a
1`
0{
1z
0w
1u
1t
1s
1r
0q
1p
1o
0m
0g!
1D!
1H!
0c!
1x!
1J!
1N!
1_!
0P!
1k!
0V!
1G!
0b!
1w!
0I!
1M!
1q!
1O!
0S!
0l!
0o!
1."
0j!
1`!
0t!
1a!
1v!
1y!
0d!
1e!
1|!
1E!
03"
0h!
1""
0#"
13"
1h!
02"
1!"
0{!
1z!
0'"
1&"
1u!
0""
1#"
1?!
0=!
07!
01!
16!
04!
1!!
0#!
0)!
0/!
1*!
0,!
18!
1:!
09!
1;!
0<!
0>!
1=!
0@!
0R
0O
1M
0L
0F
1D
1(!
1&!
0'!
1%!
0$!
0"!
1#!
0~
1@!
0?!
1K
0J
1I
1H
0G
1F
0E
0C
1~
0!!
0D
1C
#30000
1(
12
08
09
0:
1<
0?
0'
1-
1/
16
0"
0$
1;
1!
0*
10
1k
1j
1h
0e
1c
0b
0_
0]
1\
0z
1w
1v
0u
0t
0s
1q
1m
1g!
1c!
0J!
0N!
0_!
1r!
1P!
0k!
1A!
0f!
0C!
0w!
1I!
0^!
1S!
1l!
1U!
1j!
1o!
0&"
0E!
03"
1i!
0#"
1Q!
0/"
0."
1s!
0`!
0u!
1d!
0z!
1{!
0a!
1u!
0v!
1t!
1."
1'"
0d!
1&"
0y!
0;!
08!
06!
05!
0@!
10!
0=!
0:!
14!
11!
1z!
0{!
0%!
0(!
0*!
0+!
0~
1}
0#!
0&!
1,!
1/!
16!
17!
18!
1<!
1R
1O
0N
0M
0K
0I
0H
0F
0C
1B
1*!
1)!
1(!
1$!
1:!
19!
1M
1L
1K
1G
1&!
1'!
0<!
1;!
1J
1I
0$!
1%!
1H
0G
#40000
1:
0<
1'
0/
1"
0%
0)
05
07
0,
1.
1=
1A
13
1>
1y
1x
0w
1u
0r
0p
1n
0j
1i
0g
0d
1b
0`
1]
1|
1X!
1f!
0G!
1w!
0M!
0O!
1Z!
0l!
1~!
0H!
0x!
1_!
0P!
1T!
1[!
1]!
0o!
1p!
1`!
0t!
12"
0*"
1\!
0Q!
0R!
0u!
0e!
0|!
1""
1Y!
0j!
1*"
13"
02"
0]!
1o!
1u!
1/"
0`!
0."
01!
1?!
08!
02!
1>!
07!
04!
0u!
0/!
1!!
0(!
0.!
1"!
0)!
0,!
15!
18!
14!
0>!
1=!
12!
0R
0Q
0O
0L
0K
1E
1D
1+!
1(!
1,!
0"!
1#!
1.!
06!
1Q
1O
1N
1K
1F
0E
0*!
08!
0M
0(!
0K
#50000
1<
0"
1%
1)
17
1,
0=
0>
0(
19
06
04
1@
0#
1{
0y
0x
1w
1t
1r
0q
0o
1g
1d
0c
1`
0^
0]
0f!
0}!
1G!
0I!
1M!
1O!
0D!
0c!
1x!
1N!
1P!
0T!
0[!
1V!
1W!
1j!
1n!
0o!
0&"
1y!
0z!
0F!
03"
1Q!
1R!
1a!
1v!
0L!
0'"
1{!
12"
0!"
0h!
0""
0i!
1#"
1""
0a!
1'"
1&"
1]!
1`!
1."
1z!
1u!
0&"
0?!
1>!
1<!
09!
0=!
0;!
0:!
04!
13!
11!
0!!
1"!
1$!
0'!
0#!
0%!
0&!
0,!
1-!
1/!
1;!
16!
1:!
19!
1?!
1@!
00!
1R
1P
0O
0J
0I
0H
1G
0F
1E
0D
1%!
1*!
1&!
1'!
1!!
1~
0}
0:!
18!
1M
1J
1I
1H
1D
1C
0B
0&!
1(!
1K
0I
#60000
0<
0%
07
0,
1=
1>
14
0@
0:
0.
0A
18
1?
1$
1*
11
0{
1z
1y
1x
0w
0u
1s
0r
1o
1l
0i
0g
1e
0`
1_
0|
0X!
1C!
0G!
1^!
0O!
0Z!
1B!
1D!
0x!
1J!
0_!
0P!
1T!
1[!
1k!
0V!
0W!
0*"
1m!
1o!
1L!
0'"
1&"
0y!
1i!
0#"
0Q!
0R!
0{!
1E!
1F!
0Y!
1h!
02"
1!"
0]!
0z!
1a!
0n!
0\!
1*"
0m!
1n!
0o!
0&"
1y!
0`!
0."
0""
1#"
0<!
0@!
10!
1:!
09!
14!
02!
0u!
1z!
0$!
0~
1}
1&!
0'!
1,!
0.!
12!
03!
0;!
0>!
0Q
1O
0J
1I
0G
0C
1B
1.!
0-!
0%!
0"!
1@!
0?!
06!
0:!
04!
13!
1Q
0P
0H
0E
1~
0!!
0*!
0&!
0,!
1-!
1;!
08!
1P
0O
0M
0I
0D
1C
1%!
0(!
0K
1H
#70000
1,
04
1@
1A
0?
0$
0*
01
1"
0)
09
02
0-
00
0+
0k
0h
1g
0f
0e
0d
0_
1]
1{
0z
0t
0o
0m
0l
1|
1X!
0B!
0g!
0D!
0N!
0k!
1V!
1f!
0C!
0M!
0^!
0q!
1O!
0S!
0U!
1o!
0p!
1R!
0/"
1."
0s!
1t!
0*"
0a!
0v!
0E!
0F!
0#"
1Y!
0j!
1\!
1*"
0h!
12"
0!"
1'"
1&"
0y!
0t!
1/"
0z!
1""
0i!
1#"
1]!
0o!
1p!
01!
0@!
02!
17!
16!
05!
14!
0/"
0."
1s!
0/!
0~
0.!
1)!
1*!
0+!
1,!
15!
07!
1:!
19!
1>!
12!
0R
0Q
1O
0N
1M
1L
0C
1t!
1+!
0)!
1&!
1'!
1"!
1.!
04!
1@!
00!
1?!
0;!
1Q
1N
0L
1J
1I
1E
0,!
1~
0}
1!!
0%!
06!
05!
0O
0H
1D
1C
0B
0*!
0+!
17!
0N
0M
1)!
1L
#80000
0,
1$
1*
1)
12
1-
1<
08
1(
0'
0!
1&
1h
0g
1e
1d
1c
0b
1a
1_
0\
1w
0s
1m
1g!
0J!
1P!
0A!
1C!
1b!
0w!
1I!
1M!
1^!
0O!
1S!
1o!
1`!
0t!
1u!
0&"
1z!
1F!
13"
0#"
1h!
0""
1#"
1a!
0u!
1v!
0'"
1d!
1&"
0?!
0@!
1=!
1;!
0:!
18!
07!
14!
1{!
0!!
0~
1#!
1%!
0&!
1(!
0)!
1,!
08!
1@!
1O
0L
1K
0I
1H
1F
0D
0C
0(!
1~
1:!
09!
0K
1C
1&!
0'!
1<!
0J
1I
1$!
1G
#90000
1,
0*
0)
0(
1'
1!
0A
1?
11
0"
19
1%
1g
0e
0d
0c
1b
1`
0]
1\
0|
1z
1t
1l
1B!
1N!
1k!
0X!
1A!
0f!
1G!
1w!
0I!
0M!
0^!
1O!
1Q!
1/"
0`!
1t!
0L!
1'"
0&"
1y!
1e!
0{!
1|!
0h!
1""
0Y!
1j!
0*"
1m!
1i!
0n!
0\!
1*"
0m!
0#"
03"
1h!
02"
1!"
0z!
0a!
1u!
0v!
0'"
0d!
1&"
0y!
0""
1#"
1n!
0o!
10!
02!
11!
1?!
0<!
0:!
19!
17!
15!
1z!
0e!
1{!
0|!
1}
0.!
1/!
1!!
0$!
0&!
1'!
1)!
1+!
18!
0;!
0>!
0=!
0@!
12!
03!
1B
1R
0Q
1N
1L
1J
0I
0G
1D
13"
0h!
12"
0!"
1(!
0%!
0"!
0#!
0~
1.!
0-!
04!
13!
1@!
0?!
1:!
09!
1Q
0P
1K
0H
0F
0E
0C
1""
0#"
0,!
1-!
1~
0!!
1&!
0'!
1<!
1;!
1P
0O
0J
1I
0D
1C
1$!
1%!
1>!
1=!
1H
1G
1"!
1#!
0@!
1?!
1F
1E
0~
1!!
1D
0C
#100000
1*
1)
1(
0'
1A
01
1"
09
0$
14
1+
0=
0>
1:
1/
1j
1f
1e
1d
1c
0b
0_
1]
1|
0y
0x
1u
0t
1o
0l
0B!
1D!
0N!
1_!
0T!
0[!
1X!
1f!
0C!
0w!
1I!
1M!
1^!
1q!
1l!
0*"
1m!
1."
1L!
1'"
0&"
1h!
0""
1Y!
0j!
0n!
0]!
1o!
0p!
1`!
0i!
1#"
0u!
1v!
0/"
1*"
1i!
0#"
1a!
1n!
1d!
1&"
0'"
1@!
00!
14!
03!
01!
0?!
0:!
19!
16!
02!
1e!
0{!
1|!
1~
0}
1,!
0-!
0/!
0!!
0&!
1'!
1*!
0.!
13!
0@!
10!
12!
05!
08!
0R
0Q
0P
1O
1M
1J
0I
0D
1C
0B
03"
02"
1!"
1-!
0~
1}
1.!
0+!
0(!
09!
1:!
1Q
1P
0N
0K
0C
1B
1""
0'!
1&!
0<!
0J
1I
0$!
0>!
0=!
0G
0"!
0#!
1?!
0F
0E
1!!
1D
#110000
0*
1'
19
1$
0/
0!
0?
0%
02
0<
0@
17
16
1#
0;
0j
0e
1b
0`
1_
1^
0\
0{
0z
0w
0v
1t
1r
1q
0m
0g!
1c!
1x!
1N!
0r!
0P!
0k!
0V!
0A!
1}!
1C!
0G!
1w!
0^!
0l!
0t!
0e!
1{!
0|!
1E!
13"
12"
0i!
1#"
0Y!
1j!
0m!
0Q!
1/"
0."
1u!
1y!
0z!
0""
1z!
0`!
1."
0s!
0n!
0*"
03"
1t!
0u!
0?!
0;!
18!
06!
15!
11!
1@!
00!
1>!
1=!
1<!
07!
0!!
0%!
1(!
0*!
1+!
1/!
1~
0}
1"!
1#!
1$!
0)!
0=!
02!
03!
16!
1;!
1R
1N
0M
0L
1K
0H
1G
1F
1E
0D
1C
0B
0#!
0.!
0-!
1*!
1%!
08!
17!
0Q
0P
1M
1H
0F
0(!
1)!
1L
0K
#120000
0'
1/
1!
1?
12
1<
1@
07
06
11
0"
04
0+
0:
0,
0&
03
1j
0g
0f
0b
0a
0]
1\
1{
1z
1w
0u
0r
0q
0o
0n
1m
1l
1B!
1g!
0~!
0D!
0c!
0x!
0_!
1P!
1k!
1V!
1A!
0f!
0b!
0w!
0q!
0O!
1l!
0."
1Y!
0j!
1m!
0t!
0y!
0d!
0E!
13"
02"
1i!
0h!
12"
0!"
0{!
0z!
1n!
1*"
1""
0#"
10!
0>!
1=!
07!
01!
06!
1}
0"!
1#!
0)!
0/!
0*!
12!
13!
0;!
0<!
1>!
1B
0R
0M
0L
1F
0E
1.!
1-!
0%!
0$!
1"!
0@!
1?!
1Q
1P
0H
0G
1E
0~
1!!
1D
0C
#130000
02
0<
0@
16
01
1"
1&
1*
09
1%
0#
1;
1>
0-
18
10
15
0{
1y
0w
1v
0t
1s
1q
1p
0m
0l
1k
0h
1e
1a
1`
0^
1]
1f!
0}!
1G!
1b!
1^!
0S!
1U!
0B!
0g!
1H!
1c!
1J!
0N!
1r!
0P!
1[!
0V!
1\!
0n!
0R!
0/"
1."
0a!
1u!
0v!
1K!
1'"
0i!
1#"
0o!
1t!
1d!
1e!
1|!
02"
03"
1h!
12"
1{!
0'"
1o!
1i!
0#"
0>!
17!
04!
1@!
00!
19!
18!
16!
05!
03!
0"!
1)!
0,!
1~
0}
1'!
1(!
1*!
0+!
0-!
14!
09!
1<!
1>!
0=!
0P
0O
0N
1M
1L
1K
1J
0E
1C
0B
1,!
0'!
1$!
1"!
0#!
0@!
10!
1O
0J
1G
0F
1E
0~
1}
0C
1B
#140000
12
1@
06
0"
0*
19
0%
0;
1-
08
05
0!
0?
14
13
0$
0)
1=
1.
1{
0z
1x
0v
1t
0s
0q
0p
1o
1n
1m
1i
1h
0e
0d
0`
0_
0]
0\
0A!
0f!
0C!
0G!
0M!
0^!
1S!
1Z!
1g!
1~!
1D!
0H!
0c!
0J!
1N!
0r!
1T!
0k!
1V!
1W!
1j!
0*"
0."
0K!
1'"
1z!
02"
1!"
1n!
1p!
0t!
0e!
0|!
0i!
1#"
13"
0h!
12"
0!"
1/"
0""
0d!
0&"
0{!
1""
0#"
1@!
00!
07!
13!
0>!
1;!
19!
06!
02!
11!
1~
0}
0)!
1-!
0"!
1%!
1'!
0*!
0.!
1/!
0:!
0?!
15!
1>!
1=!
1R
0Q
1P
0M
0L
1J
1H
0E
1C
0B
0&!
0!!
1+!
1"!
1#!
0@!
1?!
0<!
1N
0I
1F
1E
0D
0~
1!!
0$!
0G
1D
0C
#150000
02
1"
1%
0-
15
04
1<
1#
0>
00
1'
17
1+
0(
0y
1w
1r
1p
0o
0m
0k
0h
1f
0c
1b
1`
1^
1]
1f!
1}!
1G!
1w!
0I!
1q!
0S!
0U!
0g!
0D!
1H!
1x!
1P!
0[!
0n!
1R!
0/"
0F!
03"
0W!
0j!
0o!
1."
0L!
0'"
1y!
1e!
1|!
02"
1!"
0""
13"
1h!
12"
0z!
0e!
1]!
0."
1s!
0h!
02"
1#"
0>!
09!
16!
04!
01!
0=!
05!
03!
0#"
1t!
0"!
0'!
1*!
0,!
0/!
0#!
0+!
0-!
0;!
1>!
1=!
0?!
0R
0P
0O
0N
1M
0J
0F
0E
0%!
1"!
1#!
0!!
1@!
0>!
06!
0H
1F
1E
0D
1~
0"!
0*!
17!
0@!
0M
0E
1C
1)!
0~
1L
0C
#160000
0%
1-
05
14
1>
10
0'
07
0+
1;
18
1!
1?
1)
1:
1,
0A
1k
1h
1g
0f
1d
0b
0`
1\
1z
1y
1v
1u
1s
0r
0p
1o
0|
0X!
1D!
0H!
0x!
1J!
1_!
1r!
1[!
1k!
1A!
0G!
0w!
1M!
0q!
1O!
1S!
1U!
1W!
1o!
1Q!
1/"
0u!
1v!
1#"
1*"
1n!
1`!
0t!
1L!
1'"
0y!
0|!
1F!
03"
0Y!
13"
1z!
1a!
1u!
0'"
1d!
1&"
0=!
19!
07!
13!
12!
1@!
08!
15!
14!
1{!
0#!
1'!
0)!
1-!
1.!
1~
0(!
1+!
1,!
09!
18!
1;!
1=!
1Q
1P
1O
1N
0L
0K
1J
0F
1C
0'!
1(!
1%!
1#!
1:!
1K
0J
1H
1F
1&!
1<!
1I
1$!
1G
#170000
1%
0-
0>
00
1'
17
08
0!
0)
0:
0,
12
0<
0#
0@
16
1$
0k
0h
0g
0d
1b
1`
1_
0^
0\
0{
0y
0w
0u
0s
1r
1q
1m
1g!
1c!
1x!
0J!
0_!
0P!
0[!
0V!
0A!
0}!
1C!
1G!
1w!
0M!
0O!
0S!
0U!
0o!
0u!
1e!
0{!
1|!
1E!
03"
12"
0!"
0#"
0W!
0n!
0Q!
0R!
0`!
1t!
0L!
1'"
1y!
0z!
1h!
1""
1#"
1z!
0a!
1u!
0v!
0]!
0\!
0*"
0""
13"
02"
1!"
1""
1o!
0p!
1."
0s!
0'"
0&"
1?!
0;!
19!
17!
03!
0@!
1>!
0=!
0<!
08!
04!
0t!
0/"
1!!
0%!
1'!
1)!
0-!
0~
1"!
0#!
0$!
0(!
0,!
0>!
1=!
0?!
02!
18!
1;!
1@!
0P
0O
1L
0K
1J
0H
0G
0F
1E
1D
0C
0"!
1#!
0!!
0.!
1(!
1%!
1~
0:!
09!
16!
14!
1?!
0Q
1K
1H
1F
0E
0D
1C
0&!
0'!
1*!
1,!
1!!
05!
07!
1O
1M
0J
0I
1D
0+!
0)!
0N
0L
#180000
0%
1-
1>
1!
1)
1:
1,
02
1<
06
0$
15
04
1+
0;
0?
03
0.
0/
0j
0i
1h
1g
1f
1d
0`
0_
1\
0z
1y
1w
0v
1u
0q
1p
0o
0n
0m
0g!
0~!
0D!
1H!
0c!
1_!
0r!
1P!
1[!
0k!
1A!
0C!
0G!
1M!
1q!
1O!
1S!
0Z!
0l!
0o!
1p!
0u!
1v!
1i!
0#"
0m!
1Q!
1R!
1t!
0d!
0z!
0E!
0F!
12"
0!"
0""
1""
0e!
1{!
0|!
1]!
1`!
0."
1s!
1n!
1'"
1/"
0t!
1u!
03"
0h!
02"
0?!
1>!
0;!
17!
0@!
10!
08!
04!
0i!
1#"
0!!
1"!
0%!
1)!
0~
1}
0(!
0,!
15!
19!
13!
06!
1<!
1?!
0O
1L
0K
0H
1E
0D
0C
1B
1+!
1'!
1-!
0*!
1$!
1!!
0>!
0=!
18!
07!
1P
1N
0M
1J
1G
1D
0"!
0#!
1(!
0)!
1@!
00!
0L
1K
0F
0E
1~
0}
1C
0B
#190000
1%
0>
0!
0)
12
0<
1$
14
0+
1?
10
0'
18
1#
0"
1*
0=
11
1k
0f
1e
0d
0b
1`
1_
1^
0]
0\
1z
0y
0x
0w
1s
1o
1m
1l
1B!
1g!
1D!
1J!
0P!
0T!
0[!
1k!
0A!
0f!
1}!
1C!
1G!
0w!
0M!
1^!
0q!
1U!
1j!
1."
0s!
1t!
0u!
1&"
0y!
0{!
1|!
12"
1*"
0n!
0]!
1o!
0p!
0Q!
0/"
1L!
0'"
1E!
1F!
1e!
1h!
02"
1!"
1a!
1/"
0."
13"
1z!
0t!
1d!
0&"
1y!
0""
1i!
0#"
09!
05!
14!
03!
12!
1>!
0<!
1:!
08!
17!
16!
11!
0z!
1{!
0'!
0+!
1,!
0-!
1.!
1"!
0$!
1&!
0(!
1)!
1*!
1/!
07!
1;!
1=!
06!
15!
0>!
1R
1Q
0P
1O
0N
1M
1L
0K
0J
1I
0G
1E
0)!
1%!
1#!
0*!
1+!
0"!
0@!
10!
0?!
0:!
1N
0M
0L
1H
1F
0E
0~
1}
0!!
0&!
1<!
0;!
0I
0D
0C
1B
1$!
0%!
0H
1G
