Lab 3/Lab 3 ex 2 - nbit shift register/simulation/qsim/gen_shift_reg.msim.vcd
$comment
	File created using the following command:
		vcd file gen_shift_reg.msim.vcd -direction
$end
$date
	Thu Feb 21 19:09:27 2019
$end
$version
	ModelSim Version 10.5b
$end
$timescale
	1ps
$end

$scope module gen_shift_reg_vhd_vec_tst $end
$var wire 1 ! CLK $end
$var wire 1 " Sin $end
$var wire 1 # Sout $end

$scope module i1 $end
$var wire 1 $ gnd $end
$var wire 1 % vcc $end
$var wire 1 & unknown $end
$var wire 1 ' devoe $end
$var wire 1 ( devclrn $end
$var wire 1 ) devpor $end
$var wire 1 * ww_devoe $end
$var wire 1 + ww_devclrn $end
$var wire 1 , ww_devpor $end
$var wire 1 - ww_CLK $end
$var wire 1 . ww_Sin $end
$var wire 1 / ww_Sout $end
$var wire 1 0 \Sout~output_o\ $end
$var wire 1 1 \CLK~input_o\ $end
$var wire 1 2 \Sin~input_o\ $end
$var wire 1 3 \d_ff_stages:0:d_ff|Q~q\ $end
$var wire 1 4 \d_ff_stages:1:d_ff|Q~q\ $end
$var wire 1 5 \d_ff_stages:2:d_ff|Q~q\ $end
$upscope $end
$upscope $end
$enddefinitions $end
#0
$dumpvars
1!
0"
0#
0$
1%
x&
1'
1(
1)
1*
1+
1,
1-
0.
0/
00
11
02
03
04
05
$end
#62500
0!
0-
01
#125000
1!
1-
11
#187500
0!
0-
01
#250000
1!
1-
11
#312500
0!
1"
0-
1.
12
01
#375000
1!
1-
11
13
#437500
0!
0"
0-
0.
02
01
#500000
1!
1"
1-
1.
12
11
03
14
#562500
0!
0-
01
#625000
1!
0"
1-
0.
02
11
13
04
15
10
1/
1#
#687500
0!
0-
01
#750000
1!
1-
11
03
14
05
00
0/
0#
#812500
0!
1"
0-
1.
12
01
#875000
1!
0"
1-
0.
02
11
13
04
15
10
1/
1#
#937500
0!
0-
01
#1000000
1!
1"
1-
1.
12
11
03
14
05
00
0/
0#
#1062500
0!
0-
01
#1125000
1!
1-
11
13
04
15
10
1/
1#
#1187500
0!
0"
0-
0.
02
01
#1250000
1!
1"
1-
1.
12
11
03
14
05
00
0/
0#
#1312500
0!
0"
0-
0.
02
01
#1375000
1!
1"
1-
1.
12
11
04
15
10
1/
1#
#1437500
0!
0-
01
#1500000
1!
0"
1-
0.
02
11
13
05
00
0/
0#
#1562500
0!
1"
0-
1.
12
01
#1625000
1!
1-
11
14
#1687500
0!
0-
01
#1750000
1!
1-
11
15
10
1/
1#
#1812500
0!
0"
0-
0.
02
01
#1875000
1!
1-
11
03
#1937500
0!
0-
01
#2000000
1!
1-
11
04
#2062500
0!
1"
0-
1.
12
01
#2125000
1!
0"
1-
0.
02
11
13
05
00
0/
0#
#2187500
0!
0-
01
#2250000
1!
1-
11
03
14
#2312500
0!
0-
01
#2375000
1!
1"
1-
1.
12
11
04
15
10
1/
1#
#2437500
0!
0"
0-
0.
02
01
#2500000
1!
1-
11
05
00
0/
0#
#2562500
0!
1"
0-
1.
12
01
#2625000
1!
0"
1-
0.
02
11
13
#2687500
0!
0-
01
#2750000
1!
1-
11
03
14
#2812500
0!
0-
01
#2875000
1!
1"
1-
1.
12
11
04
15
10
1/
1#
#2937500
0!
0-
01
#3000000
1!
1-
11
13
05
00
0/
0#
#3062500
0!
0"
0-
0.
02
01
#3125000
1!
1-
11
03
14
#3187500
0!
0-
01
#3250000
1!
1"
1-
1.
12
11
04
15
10
1/
1#
#3312500
0!
0"
0-
0.
02
01
#3375000
1!
1-
11
05
00
0/
0#
#3437500
0!
1"
0-
1.
12
01
#3500000
1!
0"
1-
0.
02
11
13
#3562500
0!
1"
0-
1.
12
01
#3625000
1!
0"
1-
0.
02
11
14
#3687500
0!
0-
01
#3750000
1!
1"
1-
1.
12
11
03
15
10
1/
1#
#3812500
0!
0"
0-
0.
02
01
#3875000
1!
1-
11
04
#3937500
0!
1"
0-
1.
12
01
#4000000
1!
0"
1-
0.
02
11
13
05
00
0/
0#
#4062500
0!
1"
0-
1.
12
01
#4125000
1!
0"
1-
0.
02
11
14
#4187500
0!
1"
0-
1.
12
01
#4250000
1!
1-
11
15
10
1/
1#
#4312500
0!
0"
0-
0.
02
01
#4375000
1!
1"
1-
1.
12
11
03
#4437500
0!
0"
0-
0.
02
01
#4500000
1!
1-
11
04
#4562500
0!
1"
0-
1.
12
01
#4625000
1!
1-
11
13
05
00
0/
0#
#4687500
0!
0"
0-
0.
02
01
#4750000
1!
1"
1-
1.
12
11
03
14
#4812500
0!
0-
01
#4875000
1!
0"
1-
0.
02
11
13
04
15
10
1/
1#
#4937500
0!
1"
0-
1.
12
01
#5000000
1!
0"
1-
0.
02
11
14
05
00
0/
0#
#5062500
0!
1"
0-
1.
12
01
#5125000
1!
0"
1-
0.
02
11
15
10
1/
1#
#5187500
0!
1"
0-
1.
12
01
#5250000
1!
1-
11
#5312500
0!
0-
01
#5375000
1!
0"
1-
0.
02
11
#5437500
0!
0-
01
#5500000
1!
1-
11
03
#5562500
0!
0-
01
#5625000
1!
1"
1-
1.
12
11
04
#5687500
0!
0-
01
#5750000
1!
0"
1-
0.
02
11
13
05
00
0/
0#
#5812500
0!
0-
01
#5875000
1!
1-
11
03
14
#5937500
0!
0-
01
#6000000
1!
1"
1-
1.
12
11
04
15
10
1/
1#
#6062500
0!
0"
0-
0.
02
01
#6125000
1!
1-
11
05
00
0/
0#
#6187500
0!
0-
01
#6250000
1!
1"
1-
1.
12
11
#6312500
0!
0-
01
#6375000
1!
1-
11
13
#6437500
0!
0"
0-
0.
02
01
#6500000
1!
1"
1-
1.
12
11
03
14
#6562500
0!
0-
01
#6625000
1!
0"
1-
0.
02
11
13
04
15
10
1/
1#
#6687500
0!
1"
0-
1.
12
01
#6750000
1!
1-
11
14
05
00
0/
0#
#6812500
0!
0"
0-
0.
02
01
#6875000
1!
1-
11
03
15
10
1/
1#
#6937500
0!
0-
01
#7000000
1!
1-
11
04
#7062500
0!
0-
01
#7125000
1!
1"
1-
1.
12
11
05
00
0/
0#
#7187500
0!
0-
01
#7250000
1!
0"
1-
0.
02
11
13
#7312500
0!
1"
0-
1.
12
01
#7375000
1!
0"
1-
0.
02
11
14
#7437500
0!
1"
0-
1.
12
01
#7500000
1!
1-
11
15
10
1/
1#
#7562500
0!
0"
0-
0.
02
01
#7625000
1!
1"
1-
1.
12
11
03
#7687500
0!
0-
01
#7750000
1!
0"
1-
0.
02
11
13
04
#7812500
0!
0-
01
#7875000
1!
1"
1-
1.
12
11
03
14
05
00
0/
0#
#7937500
0!
0"
0-
0.
02
01
