Lab 2/Lab 2 ex3 - multi 5bit -correct/simulation/qsim/multi_5bit.msim.vcd
$comment
	File created using the following command:
		vcd file multi_5bit.msim.vcd -direction
$end
$date
	Tue Feb 12 23:50:42 2019
$end
$version
	ModelSim Version 10.5b
$end
$timescale
	1ps
$end

$scope module multi_5bit_vhd_vec_tst $end
$var wire 1 ! Cout $end
$var wire 1 " P [9] $end
$var wire 1 # P [8] $end
$var wire 1 $ P [7] $end
$var wire 1 % P [6] $end
$var wire 1 & P [5] $end
$var wire 1 ' P [4] $end
$var wire 1 ( P [3] $end
$var wire 1 ) P [2] $end
$var wire 1 * P [1] $end
$var wire 1 + P [0] $end
$var wire 1 , X [4] $end
$var wire 1 - X [3] $end
$var wire 1 . X [2] $end
$var wire 1 / X [1] $end
$var wire 1 0 X [0] $end
$var wire 1 1 Y [4] $end
$var wire 1 2 Y [3] $end
$var wire 1 3 Y [2] $end
$var wire 1 4 Y [1] $end
$var wire 1 5 Y [0] $end

$scope module i1 $end
$var wire 1 6 gnd $end
$var wire 1 7 vcc $end
$var wire 1 8 unknown $end
$var wire 1 9 devoe $end
$var wire 1 : devclrn $end
$var wire 1 ; devpor $end
$var wire 1 < ww_devoe $end
$var wire 1 = ww_devclrn $end
$var wire 1 > ww_devpor $end
$var wire 1 ? ww_X [4] $end
$var wire 1 @ ww_X [3] $end
$var wire 1 A ww_X [2] $end
$var wire 1 B ww_X [1] $end
$var wire 1 C ww_X [0] $end
$var wire 1 D ww_Y [4] $end
$var wire 1 E ww_Y [3] $end
$var wire 1 F ww_Y [2] $end
$var wire 1 G ww_Y [1] $end
$var wire 1 H ww_Y [0] $end
$var wire 1 I ww_Cout $end
$var wire 1 J ww_P [9] $end
$var wire 1 K ww_P [8] $end
$var wire 1 L ww_P [7] $end
$var wire 1 M ww_P [6] $end
$var wire 1 N ww_P [5] $end
$var wire 1 O ww_P [4] $end
$var wire 1 P ww_P [3] $end
$var wire 1 Q ww_P [2] $end
$var wire 1 R ww_P [1] $end
$var wire 1 S ww_P [0] $end
$var wire 1 T \Cout~output_o\ $end
$var wire 1 U \P[0]~output_o\ $end
$var wire 1 V \P[1]~output_o\ $end
$var wire 1 W \P[2]~output_o\ $end
$var wire 1 X \P[3]~output_o\ $end
$var wire 1 Y \P[4]~output_o\ $end
$var wire 1 Z \P[5]~output_o\ $end
$var wire 1 [ \P[6]~output_o\ $end
$var wire 1 \ \P[7]~output_o\ $end
$var wire 1 ] \P[8]~output_o\ $end
$var wire 1 ^ \P[9]~output_o\ $end
$var wire 1 _ \Y[4]~input_o\ $end
$var wire 1 ` \X[4]~input_o\ $end
$var wire 1 a \Y[0]~input_o\ $end
$var wire 1 b \X[3]~input_o\ $end
$var wire 1 c \Y[1]~input_o\ $end
$var wire 1 d \comb~0_combout\ $end
$var wire 1 e \X[2]~input_o\ $end
$var wire 1 f \comb~1_combout\ $end
$var wire 1 g \X[1]~input_o\ $end
$var wire 1 h \comb~2_combout\ $end
$var wire 1 i \X[0]~input_o\ $end
$var wire 1 j \HA_1|Cout~combout\ $end
$var wire 1 k \FA_2|Cout~0_combout\ $end
$var wire 1 l \FA_3|Cout~0_combout\ $end
$var wire 1 m \FA_4|Cout~0_combout\ $end
$var wire 1 n \comb~3_combout\ $end
$var wire 1 o \Y[2]~input_o\ $end
$var wire 1 p \comb~4_combout\ $end
$var wire 1 q \FA_4|S~0_combout\ $end
$var wire 1 r \comb~5_combout\ $end
$var wire 1 s \FA_3|S~0_combout\ $end
$var wire 1 t \comb~6_combout\ $end
$var wire 1 u \FA_2|S~combout\ $end
$var wire 1 v \HA_6|Cout~combout\ $end
$var wire 1 w \FA_7|Cout~0_combout\ $end
$var wire 1 x \FA_8|Cout~0_combout\ $end
$var wire 1 y \FA_9|Cout~0_combout\ $end
$var wire 1 z \FA_10|S~2_combout\ $end
$var wire 1 { \Y[3]~input_o\ $end
$var wire 1 | \comb~7_combout\ $end
$var wire 1 } \FA_9|S~0_combout\ $end
$var wire 1 ~ \comb~8_combout\ $end
$var wire 1 !! \FA_8|S~0_combout\ $end
$var wire 1 "! \comb~9_combout\ $end
$var wire 1 #! \FA_7|S~combout\ $end
$var wire 1 $! \HA_11|Cout~combout\ $end
$var wire 1 %! \FA_12|Cout~0_combout\ $end
$var wire 1 &! \FA_13|Cout~0_combout\ $end
$var wire 1 '! \FA_14|Cout~0_combout\ $end
$var wire 1 (! \comb~10_combout\ $end
$var wire 1 )! \FA_10|Cout~0_combout\ $end
$var wire 1 *! \FA_15|S~0_combout\ $end
$var wire 1 +! \comb~11_combout\ $end
$var wire 1 ,! \FA_14|S~0_combout\ $end
$var wire 1 -! \comb~12_combout\ $end
$var wire 1 .! \FA_13|S~0_combout\ $end
$var wire 1 /! \comb~13_combout\ $end
$var wire 1 0! \FA_12|S~0_combout\ $end
$var wire 1 1! \HA_16|Cout~combout\ $end
$var wire 1 2! \FA_17|Cout~0_combout\ $end
$var wire 1 3! \FA_18|Cout~0_combout\ $end
$var wire 1 4! \FA_19|Cout~0_combout\ $end
$var wire 1 5! \FA_15|Cout~0_combout\ $end
$var wire 1 6! \FA_20|Cout~0_combout\ $end
$var wire 1 7! \P~0_combout\ $end
$var wire 1 8! \HA_1|S~combout\ $end
$var wire 1 9! \HA_6|S~combout\ $end
$var wire 1 :! \HA_11|S~combout\ $end
$var wire 1 ;! \HA_16|S~combout\ $end
$var wire 1 <! \FA_17|S~combout\ $end
$var wire 1 =! \FA_18|S~combout\ $end
$var wire 1 >! \FA_19|S~combout\ $end
$var wire 1 ?! \FA_20|S~0_combout\ $end
$upscope $end
$upscope $end
$enddefinitions $end
#0
$dumpvars
0!
06
17
x8
19
1:
1;
1<
1=
1>
0I
0T
0U
0V
0W
0X
0Y
0Z
0[
0\
0]
0^
0_
0`
0a
0b
0c
0d
0e
0f
0g
0h
0i
0j
0k
0l
0m
0n
0o
0p
0q
0r
0s
0t
0u
0v
0w
0x
0y
0z
0{
0|
0}
0~
0!!
0"!
0#!
0$!
0%!
0&!
0'!
0(!
0)!
0*!
0+!
0,!
0-!
0.!
0/!
00!
01!
02!
03!
04!
05!
06!
07!
08!
09!
0:!
0;!
0<!
0=!
0>!
0?!
0,
0-
0.
0/
00
01
02
03
04
05
0?
0@
0A
0B
0C
0D
0E
0F
0G
0H
0J
0K
0L
0M
0N
0O
0P
0Q
0R
0S
0"
0#
0$
0%
0&
0'
0(
0)
0*
0+
$end
#31250
10
15
1C
1H
1a
1i
17!
1U
1S
1+
#62500
00
05
1/
14
0C
1B
0H
1G
1c
0a
1g
0i
07!
1h
1u
19!
0U
0S
0+
1W
1Q
1)
#93750
10
15
1C
1H
1a
1i
1j
17!
1k
0u
09!
1#!
1U
1:!
1S
1+
0W
0Q
1X
0)
1P
1(
#125000
00
05
0/
04
1.
13
0C
0B
1A
0H
0G
1F
1o
0c
0a
1e
0g
0i
07!
0h
0j
1r
1!!
10!
0k
0#!
1;!
0U
0:!
0S
0+
1Y
1O
0X
1'
0P
0(
#156250
10
15
1C
1H
1a
1i
19!
1u
17!
1v
09!
1#!
1U
1W
1:!
1S
1Q
0W
1+
1)
0Q
0)
1X
1P
1(
#187500
00
05
1/
14
0C
1B
0H
1G
1c
0a
1g
0i
0v
19!
1t
0u
07!
1f
1h
1s
1u
09!
1w
0#!
0:!
1x
00!
19!
0U
1W
0;!
1.!
0S
1Q
0W
0+
1)
1<!
0Q
1W
0X
0)
1Q
0P
0Y
1)
0(
0O
1Z
0'
1N
1&
#218750
10
15
1C
1H
1a
1i
1v
09!
1j
1k
0u
17!
0v
19!
1l
1u
1v
09!
0!!
0w
1#!
1U
0W
1:!
1w
0#!
1S
0Q
1W
1+
0)
0:!
10!
1Q
0W
1)
1;!
0Q
1X
0)
1P
0X
1(
0P
1Y
0(
1O
1'
#250000
00
05
0/
04
0.
03
1-
12
0C
0B
0A
1@
0H
0G
0F
1E
1{
0o
0c
0a
1b
0e
0g
0i
0u
07!
0f
0h
0j
0s
0r
0t
0v
1!!
19!
1|
1,!
1=!
00!
0w
1#!
0k
0l
09!
0!!
0#!
1:!
0x
10!
0;!
1W
0U
1;!
0.!
0:!
00!
1Q
0S
0W
1[
0+
1)
0;!
0<!
0Q
1M
0Y
1X
0)
1%
0O
1P
0X
1Y
1(
0'
0P
1O
0Z
0Y
0(
1'
0N
0O
0'
0&
#281250
10
15
1C
1H
1a
1i
1:!
1s
17!
1#!
1$!
0:!
1U
1X
1;!
1S
1P
1+
1(
0X
0P
1Y
0(
1O
1'
#312500
00
05
1/
14
0C
1B
0H
1G
1c
0a
1g
0i
0$!
1:!
1"!
10!
07!
1d
1h
1q
0s
0#!
1!!
1u
19!
1%!
00!
0:!
0U
1X
0;!
1<!
0S
1P
0+
1(
0X
1W
0P
1Q
1Z
0Y
1)
0(
1N
0O
0'
1&
#343750
10
15
1C
1H
1a
1i
1:!
1j
1s
17!
1#!
1k
0u
09!
1l
0#!
1$!
0:!
1U
1X
1;!
0$!
1:!
1m
0!!
1S
1P
1+
1(
10!
1}
0%!
0;!
0X
0W
0<!
1.!
1;!
0P
0Q
1X
1Y
0)
0(
1<!
1P
1O
0Y
1(
1'
0O
1Y
0Z
0'
1O
0N
1Z
1'
0&
1N
1&
#375000
00
05
0/
04
1.
13
0C
0B
1A
0H
0G
1F
1o
0c
0a
1e
0g
0i
0:!
0"!
00!
1~
0.!
0l
07!
0d
0h
0j
0q
0s
1p
1r
0}
1!!
10!
1.!
1y
1#!
0k
0m
0<!
0;!
0y
1}
0#!
1:!
1'!
0,!
1<!
1;!
0U
0X
0=!
1>!
0:!
1&!
0.!
0'!
1,!
0S
0P
0Y
0Z
0+
0(
0>!
0<!
1'!
0O
0N
1Y
1Z
1X
0'
0&
1>!
1O
1N
1P
0X
1\
0[
1(
1'
1&
0P
1L
0M
0Z
0\
0(
0%
1$
0N
0L
1\
0&
0$
1L
1$
#406250
10
15
1C
1H
1a
1i
19!
1:!
1s
1u
17!
1v
09!
1#!
1$!
0:!
1w
0#!
1U
1X
1W
0$!
1:!
1x
00!
0;!
1S
1P
1Q
0W
1+
1)
1(
1y
0&!
1.!
0Q
0X
0)
1<!
1=!
0,!
0P
0Y
1X
0(
0=!
0O
1P
1(
0'
1[
1Z
1M
1N
0[
1&
1%
0M
0%
#437500
00
05
1/
14
0C
1B
0H
1G
1c
0a
1g
0i
0v
19!
0:!
1t
1"!
10!
0u
07!
1d
1f
1h
1q
0!!
1u
09!
1;!
19!
1%!
00!
0U
0X
1W
0;!
1&!
0<!
0S
0P
1Q
1Y
0W
0+
1)
0(
1=!
1O
0Q
1W
0)
1'
1Q
0Z
0Y
1)
0N
0O
1[
0'
0&
1M
1%
#468750
10
15
1C
1H
1a
1i
1v
09!
1:!
1j
1k
1l
0s
0u
17!
0v
19!
1m
1!!
1u
1#!
1$!
0:!
1v
09!
0%!
10!
0}
0#!
1U
1X
0W
0$!
1:!
0.!
1<!
1#!
1%!
1S
1P
0Q
1W
1+
0)
1(
1$!
0:!
0%!
1;!
1Q
0W
0X
1)
0<!
1%!
0;!
0Q
0P
1Z
1X
0)
0(
1<!
1N
1P
1Y
0X
1(
1&
1O
0P
0Y
0Z
0(
1'
0O
0N
1Z
0'
0&
1N
1&
#500000
00
05
0/
04
0.
03
0-
02
1,
11
0C
0B
0A
0@
1?
0H
0G
0F
0E
1D
1_
0{
0o
0c
0a
1`
0b
0e
0g
0i
0u
07!
0d
0f
0h
0j
0q
0p
0r
0t
0v
1}
0!!
19!
0|
0~
0"!
0$!
1,!
1.!
00!
1:!
1?!
0<!
0=!
0%!
10!
0&!
0.!
0w
1!!
0k
0l
0m
09!
0y
0}
0!!
0#!
0x
0'!
1=!
1;!
1]
1X
1W
0U
0>!
0:!
00!
0,!
1K
1P
1Q
0S
0W
0[
0Z
0+
1)
1(
1#
0=!
0;!
0Q
0M
0N
1Y
1[
0)
0&
0%
1O
1M
0X
0\
1'
1%
0P
0L
0Y
0[
0(
0$
0O
0M
0'
0%
#531250
10
15
1C
1H
1a
1i
1;!
1q
17!
1!!
10!
1U
1Y
11!
0;!
1S
1O
1+
1'
1<!
0Y
0O
1Z
0'
1N
1&
#562500
00
05
1/
14
0C
1B
0H
1G
1c
0a
1g
0i
01!
1;!
1/!
07!
1h
1n
0q
0!!
1}
1u
19!
1.!
00!
0U
1Y
0;!
12!
0<!
0S
1O
0+
1'
1=!
1W
1Q
0Z
0Y
1)
0N
0O
1[
0'
0&
1M
1%
#593750
10
15
1C
1H
1a
1i
1;!
1j
1q
17!
1!!
1k
0u
09!
1#!
10!
1U
1Y
11!
0;!
1:!
1S
1O
1+
1'
1<!
0W
0Q
1X
0Y
0)
1P
0O
1Z
1(
0'
1N
1&
#625000
00
05
0/
04
1.
13
0C
0B
1A
0H
0G
1F
1o
0c
0a
1e
0g
0i
01!
1;!
0/!
1-!
07!
0h
0j
0n
0q
1r
1z
0!!
1(!
00!
1,!
1!!
0}
0k
13!
0=!
02!
1>!
0#!
0.!
10!
0;!
0U
1Y
1;!
0<!
0:!
0S
1O
0[
0+
1'
0M
0Y
1\
0%
0O
1L
0X
0Z
1Y
0'
1$
0P
0N
1O
0(
1'
0&
#656250
10
15
1C
1H
1a
1i
11!
19!
0;!
1q
1u
17!
1v
09!
1x
0!!
1<!
00!
1.!
1#!
1U
0Y
1W
1:!
12!
0<!
01!
1;!
1S
0O
1Q
1Z
0W
1+
1)
0'
02!
1<!
1=!
1N
0Q
0)
1&
0=!
1Y
0Z
1X
1O
0N
1P
1[
1Z
1(
1'
0&
1M
1N
0[
1&
1%
0M
0%
#687500
00
05
1/
14
0C
1B
0H
1G
1c
0a
1g
0i
0v
19!
0;!
1t
1/!
0u
07!
1f
1h
1n
0q
1s
0x
1!!
1y
1}
1u
09!
12!
0<!
1w
0#!
0:!
1x
1=!
19!
1)!
0,!
0y
0U
0Y
1W
0)!
1,!
0=!
1*!
1y
0.!
0S
0O
1Q
0Z
0W
0+
1)
0'
02!
1<!
1)!
0,!
14!
0>!
1=!
0*!
0N
0Q
1W
1[
0X
0)
0&
04!
1>!
16!
0?!
1*!
03!
1Q
1M
0P
0[
1)
0(
1%
06!
1?!
0M
1[
0\
1Z
0%
1M
0L
1N
0]
1T
1^
1\
1&
1%
0$
0K
1I
1J
1L
1]
0T
0^
1$
0#
1"
1!
1K
0I
0J
1#
0"
0!
#718750
10
15
1C
1H
1a
1i
1v
09!
1;!
1j
1k
1q
0u
17!
0v
19!
0!!
1l
1u
1v
09!
1m
1!!
10!
0w
1#!
1U
1Y
0W
1:!
0x
11!
0;!
0y
0z
0}
1w
0#!
1S
1O
0Q
1W
1+
0)
1'
0:!
1x
00!
12!
0<!
1Q
0W
1)
13!
0=!
01!
1;!
1.!
0Q
0Y
1X
0)
14!
0>!
0O
1P
0Z
0X
1(
0'
16!
0?!
0N
0P
1Y
0[
0(
0&
1O
0M
0\
1'
0%
0L
0]
1T
1^
0$
0K
1I
1J
0#
1"
1!
#750000
00
05
0/
04
0.
03
1-
12
0C
0B
0A
1@
0H
0G
0F
1E
1{
0o
0c
0a
1b
0e
0g
0i
0;!
0/!
0-!
1+!
0m
0u
07!
0f
0h
0j
0n
0q
0s
0r
0t
0v
0!!
0(!
19!
1|
0*!
1,!
15!
1?!
10!
0w
1#!
1!!
0k
0l
09!
0)!
02!
1<!
03!
1=!
1*!
05!
0!!
0#!
1:!
0x
1;!
1W
0U
0Y
0.!
0:!
00!
0?!
1Q
0S
0O
1Z
0W
1]
0+
1)
0'
0;!
0<!
1N
0Q
1K
1Y
1X
1[
0)
1&
1#
1O
1P
1M
0]
0X
1(
1'
1%
0K
0P
0Z
0Y
0(
0#
0N
0O
0'
0&
#781250
10
15
1C
1H
1a
1i
1:!
1;!
1q
1s
17!
1#!
1!!
10!
1$!
0:!
1U
1Y
1X
1%!
1S
1O
1P
1+
1(
1'
1<!
0X
0P
0(
1Z
1N
1&
#812500
00
05
1/
14
0C
1B
0H
1G
1c
0a
1g
0i
0$!
1:!
0;!
1"!
1/!
00!
07!
1d
1h
1n
0s
0#!
1}
1u
12!
0<!
13!
0=!
19!
1&!
1.!
0:!
0U
0Y
1X
02!
1<!
1'!
03!
1=!
1>!
0S
0O
1P
0Z
0+
1(
0'
04!
15!
0=!
0N
0X
1W
0[
0&
0P
1Q
0M
1\
1[
1Z
1)
0(
0%
1L
1M
1N
0[
1&
1%
1$
0M
0%
#843750
10
15
1C
1H
1a
1i
1:!
1;!
1j
1m
0q
1s
17!
1#!
0!!
1z
0}
1k
0u
09!
1l
0#!
0&!
0.!
0,!
0%!
10!
1$!
0:!
1U
1Y
1X
1%!
0$!
1:!
1!!
1S
1O
1P
1+
1(
1'
00!
11!
0;!
12!
0<!
0X
0W
1=!
1<!
01!
1;!
0P
0Q
1X
0)
0(
0<!
1P
0Z
0Y
1(
0N
0O
1Y
1Z
1[
0'
0&
1O
1N
1M
0Z
1'
1&
1%
0N
0&
#875000
00
05
0/
04
1.
13
0C
0B
1A
0H
0G
1F
1o
0c
0a
1e
0g
0i
0:!
0;!
0"!
0/!
10!
1~
1-!
1.!
0l
07!
0d
0h
0j
0n
0s
1p
1r
1}
0!!
1(!
00!
0.!
1#!
1y
0}
0k
0m
1!!
13!
0=!
1&!
1;!
02!
0%!
14!
0>!
10!
0y
1}
0#!
0&!
1.!
1)!
1,!
1:!
0;!
0U
0Y
0X
0*!
1<!
0:!
1&!
0.!
0)!
0,!
1;!
1?!
0S
0O
0P
1Y
0[
0+
0(
0'
1*!
0<!
1>!
1O
0M
0Y
1X
0\
1'
0%
0>!
0O
1P
0L
1]
1Y
0X
1Z
1(
0'
0$
1K
1O
0P
1N
1\
0Z
0(
1'
1&
1#
1L
0N
0\
0&
1$
0L
0$
#906250
10
15
1C
1H
1a
1i
11!
19!
1:!
0;!
1q
1s
1u
17!
1v
09!
1#!
1x
0!!
1<!
00!
1y
0&!
1.!
1$!
0:!
1w
0#!
1U
0Y
1X
1W
0$!
1:!
10!
1%!
12!
0<!
03!
1=!
0'!
1)!
1,!
1S
0O
1P
1Q
1Z
0W
1+
1)
1(
0'
0*!
13!
1&!
02!
1<!
0%!
1N
0Q
0X
0)
1&
0&!
12!
0<!
1'!
03!
0P
1[
0Z
1X
0(
0'!
13!
1M
0N
1P
1Z
1(
0&
1%
1N
0Z
1&
0N
0&
#937500
00
05
1/
14
0C
1B
0H
1G
1c
0a
1g
0i
0v
01!
19!
0:!
1;!
1t
1"!
1/!
00!
0u
07!
1d
1f
1h
1n
0}
1u
09!
0;!
1%!
02!
1<!
19!
1&!
0.!
0U
1Y
0X
1W
12!
0<!
1'!
03!
0S
1O
0P
1Q
0Y
0W
0+
1)
0(
1'
13!
0=!
0O
0Q
1W
1Z
0)
0'
1>!
1Q
1N
0Z
1)
1&
0N
0[
0&
0M
1\
0%
1L
1$
#968750
10
15
1C
1H
1a
1i
1v
09!
1:!
1;!
1j
1k
1l
1m
0q
0s
0u
17!
0v
19!
0z
1}
1u
1#!
1$!
0:!
1v
09!
1.!
0,!
0#!
1U
1Y
1X
0W
0$!
1:!
1=!
02!
1<!
1#!
11!
0;!
1S
1O
1P
0Q
1W
1+
0)
1(
1'
12!
0<!
1$!
0:!
0=!
01!
1;!
1Q
0W
0X
1)
02!
1<!
11!
0;!
1=!
0Q
0P
0Y
1Z
1[
1X
0)
0(
12!
0<!
0=!
0O
1N
1M
1P
1Y
0[
0X
0Z
1(
0'
1&
1%
1=!
1O
0M
0P
0N
1[
0Y
1Z
0(
1'
0&
0%
1M
0O
1N
0[
0Z
0'
1&
1%
0M
0N
1[
0&
0%
1M
1%
