Lab 3/Lab 3 ex 4 - gray counter/simulation/qsim/gray_counter.msim.vcd
$comment
	File created using the following command:
		vcd file gray_counter.msim.vcd -direction
$end
$date
	Thu Feb 21 19:17:22 2019
$end
$version
	ModelSim Version 10.5b
$end
$timescale
	1ps
$end

$scope module gray_counter_vhd_vec_tst $end
$var wire 1 ! clk $end
$var wire 1 " dout [2] $end
$var wire 1 # dout [1] $end
$var wire 1 $ dout [0] $end
$var wire 1 % reset $end

$scope module i1 $end
$var wire 1 & gnd $end
$var wire 1 ' vcc $end
$var wire 1 ( unknown $end
$var wire 1 ) devoe $end
$var wire 1 * devclrn $end
$var wire 1 + devpor $end
$var wire 1 , ww_devoe $end
$var wire 1 - ww_devclrn $end
$var wire 1 . ww_devpor $end
$var wire 1 / ww_clk $end
$var wire 1 0 ww_reset $end
$var wire 1 1 ww_dout [2] $end
$var wire 1 2 ww_dout [1] $end
$var wire 1 3 ww_dout [0] $end
$var wire 1 4 \dout[0]~output_o\ $end
$var wire 1 5 \dout[1]~output_o\ $end
$var wire 1 6 \dout[2]~output_o\ $end
$var wire 1 7 \clk~input_o\ $end
$var wire 1 8 \reset~input_o\ $end
$var wire 1 9 \temp[0]~1_combout\ $end
$var wire 1 : \temp_gray~0_combout\ $end
$var wire 1 ; \temp[2]~0_combout\ $end
$var wire 1 < \temp_gray~1_combout\ $end
$var wire 1 = temp [2] $end
$var wire 1 > temp [1] $end
$var wire 1 ? temp [0] $end
$var wire 1 @ \ALT_INV_reset~input_o\ $end
$upscope $end
$upscope $end
$enddefinitions $end
#0
$dumpvars
1!
0%
0&
1'
x(
1)
1*
1+
1,
1-
1.
1/
00
04
05
06
17
08
19
0:
0;
0<
1@
01
02
03
0=
0>
0?
0"
0#
0$
$end
#62500
0!
0/
07
#125000
1!
1%
1/
10
18
17
0@
1?
0?
09
1:
19
0:
14
04
13
03
1$
0$
#187500
0!
0/
07
#250000
1!
0%
1/
00
08
17
1@
#312500
0!
0/
07
#375000
1!
1%
1/
10
18
17
0@
1?
0?
09
1:
19
0:
14
04
13
03
1$
0$
#437500
0!
0/
07
#500000
1!
1/
17
#562500
0!
0/
07
#625000
1!
0%
1/
00
08
17
1@
#687500
0!
0/
07
#750000
1!
1%
1/
10
18
17
0@
1?
0?
09
1:
19
0:
14
04
13
03
1$
0$
#812500
0!
0/
07
#875000
1!
0%
1/
00
08
17
1@
#937500
0!
0/
07
#1000000
1!
1%
1/
10
18
17
0@
1?
0?
09
1:
19
0:
14
04
13
03
1$
0$
#1062500
0!
0/
07
#1125000
1!
0%
1/
00
08
17
1@
#1187500
0!
0/
07
#1250000
1!
1/
17
1?
09
1:
14
13
1$
#1312500
0!
0/
07
#1375000
1!
1%
1/
10
18
17
0@
1>
0?
0>
19
1<
0:
0<
15
05
04
12
02
03
1#
0$
0#
#1437500
0!
0/
07
#1500000
1!
0%
1/
00
08
17
1@
#1562500
0!
0/
07
#1625000
1!
1%
1/
10
18
17
0@
1?
0?
09
1:
19
0:
14
04
13
03
1$
0$
#1687500
0!
0/
07
#1750000
1!
1/
17
#1812500
0!
0/
07
#1875000
1!
1/
17
#1937500
0!
0/
07
#2000000
1!
1/
17
#2062500
0!
0/
07
#2125000
1!
1/
17
#2187500
0!
0/
07
#2250000
1!
0%
1/
00
08
17
1@
#2312500
0!
0/
07
#2375000
1!
1/
17
1?
09
1:
14
13
1$
#2437500
0!
0/
07
#2500000
1!
1%
1/
10
18
17
0@
1>
0?
0>
19
1<
0:
0<
15
05
04
12
02
03
1#
0$
0#
#2562500
0!
0/
07
#2625000
1!
1/
17
#2687500
0!
0/
07
#2750000
1!
0%
1/
00
08
17
1@
#2812500
0!
0/
07
#2875000
1!
1%
1/
10
18
17
0@
1?
0?
09
1:
19
0:
14
04
13
03
1$
0$
#2937500
0!
0/
07
#3000000
1!
0%
1/
00
08
17
1@
#3062500
0!
0/
07
#3125000
1!
1/
17
1?
09
1:
14
13
1$
#3187500
0!
0/
07
#3250000
1!
1/
17
1>
0?
19
1<
15
12
1#
#3312500
0!
0/
07
#3375000
1!
1/
17
1?
09
0:
1;
04
03
0$
#3437500
0!
0/
07
#3500000
1!
1%
1/
10
18
17
0@
0>
0?
1=
0=
19
0;
0<
16
06
11
01
1"
05
0"
02
0#
#3562500
0!
0/
07
#3625000
1!
1/
17
#3687500
0!
0/
07
#3750000
1!
0%
1/
00
08
17
1@
#3812500
0!
0/
07
#3875000
1!
1%
1/
10
18
17
0@
1?
0?
09
1:
19
0:
14
04
13
03
1$
0$
#3937500
0!
0/
07
#4000000
1!
1/
17
#4062500
0!
0/
07
#4125000
1!
0%
1/
00
08
17
1@
#4187500
0!
0/
07
#4250000
1!
1/
17
1?
09
1:
14
13
1$
#4312500
0!
0/
07
#4375000
1!
1%
1/
10
18
17
0@
1>
0?
0>
19
1<
0:
0<
15
05
04
12
02
03
1#
0$
0#
#4437500
0!
0/
07
#4500000
1!
1/
17
#4562500
0!
0/
07
#4625000
1!
1/
17
#4687500
0!
0/
07
#4750000
1!
0%
1/
00
08
17
1@
#4812500
0!
0/
07
#4875000
1!
1/
17
1?
09
1:
14
13
1$
#4937500
0!
0/
07
#5000000
1!
1/
17
1>
0?
19
1<
15
12
1#
#5062500
0!
0/
07
#5125000
1!
1/
17
1?
09
0:
1;
04
03
0$
#5187500
0!
0/
07
#5250000
1!
1%
1/
10
18
17
0@
0>
0?
1=
0=
19
0;
0<
16
06
11
01
1"
05
0"
02
0#
#5312500
0!
0/
07
#5375000
1!
0%
1/
00
08
17
1@
#5437500
0!
0/
07
#5500000
1!
1/
17
1?
09
1:
14
13
1$
#5562500
0!
0/
07
#5625000
1!
1%
1/
10
18
17
0@
1>
0?
0>
19
1<
0:
0<
15
05
04
12
02
03
1#
0$
0#
#5687500
0!
0/
07
#5750000
1!
1/
17
#5812500
0!
0/
07
#5875000
1!
1/
17
#5937500
0!
0/
07
#6000000
1!
1/
17
#6062500
0!
0/
07
#6125000
1!
1/
17
#6187500
0!
0/
07
#6250000
1!
1/
17
#6312500
0!
0/
07
#6375000
1!
1/
17
#6437500
0!
0/
07
#6500000
1!
0%
1/
00
08
17
1@
#6562500
0!
0/
07
#6625000
1!
1/
17
1?
09
1:
14
13
1$
#6687500
0!
0/
07
#6750000
1!
1%
1/
10
18
17
0@
1>
0?
0>
19
1<
0:
0<
15
05
04
12
02
03
1#
0$
0#
#6812500
0!
0/
07
#6875000
1!
1/
17
#6937500
0!
0/
07
#7000000
1!
1/
17
#7062500
0!
0/
07
#7125000
1!
1/
17
#7187500
0!
0/
07
#7250000
1!
0%
1/
00
08
17
1@
#7312500
0!
0/
07
#7375000
1!
1/
17
1?
09
1:
14
13
1$
#7437500
0!
0/
07
#7500000
1!
1%
1/
10
18
17
0@
1>
0?
0>
19
1<
0:
0<
15
05
04
12
02
03
1#
0$
0#
#7562500
0!
0/
07
#7625000
1!
1/
17
#7687500
0!
0/
07
#7750000
1!
1/
17
#7812500
0!
0/
07
#7875000
1!
1/
17
#7937500
0!
0/
07
