Lab 3/Lab 3 ex 3 - nbit Johnson counter/simulation/qsim/johnson_nbit.msim.vcd
$comment
	File created using the following command:
		vcd file johnson_nbit.msim.vcd -direction
$end
$date
	Thu Feb 21 19:13:21 2019
$end
$version
	ModelSim Version 10.5b
$end
$timescale
	1ps
$end

$scope module johnson_nbit_vhd_vec_tst $end
$var wire 1 ! clk $end
$var wire 1 " clr $end
$var wire 1 # Qout [3] $end
$var wire 1 $ Qout [2] $end
$var wire 1 % Qout [1] $end
$var wire 1 & Qout [0] $end

$scope module i1 $end
$var wire 1 ' gnd $end
$var wire 1 ( vcc $end
$var wire 1 ) unknown $end
$var wire 1 * devoe $end
$var wire 1 + devclrn $end
$var wire 1 , devpor $end
$var wire 1 - ww_devoe $end
$var wire 1 . ww_devclrn $end
$var wire 1 / ww_devpor $end
$var wire 1 0 ww_clk $end
$var wire 1 1 ww_clr $end
$var wire 1 2 ww_Qout [3] $end
$var wire 1 3 ww_Qout [2] $end
$var wire 1 4 ww_Qout [1] $end
$var wire 1 5 ww_Qout [0] $end
$var wire 1 6 \Qout[0]~output_o\ $end
$var wire 1 7 \Qout[1]~output_o\ $end
$var wire 1 8 \Qout[2]~output_o\ $end
$var wire 1 9 \Qout[3]~output_o\ $end
$var wire 1 : \clk~input_o\ $end
$var wire 1 ; \clr~input_o\ $end
$var wire 1 < \Q[0]~0_combout\ $end
$var wire 1 = Q [3] $end
$var wire 1 > Q [2] $end
$var wire 1 ? Q [1] $end
$var wire 1 @ Q [0] $end
$var wire 1 A \ALT_INV_clr~input_o\ $end
$upscope $end
$upscope $end
$enddefinitions $end
#0
$dumpvars
1!
0"
0'
1(
x)
1*
1+
1,
1-
1.
1/
10
01
06
07
08
09
1:
0;
1<
1A
02
03
04
05
0=
0>
0?
0@
0#
0$
0%
0&
$end
#62500
0!
00
0:
#125000
1!
1"
10
11
1;
1:
0A
1@
0@
16
06
15
05
1&
0&
#187500
0!
00
0:
#250000
1!
0"
10
01
0;
1:
1A
#312500
0!
00
0:
#375000
1!
1"
10
11
1;
1:
0A
1@
0@
16
06
15
05
1&
0&
#437500
0!
00
0:
#500000
1!
0"
10
01
0;
1:
1A
#562500
0!
00
0:
#625000
1!
1"
10
11
1;
1:
0A
1@
0@
16
06
15
05
1&
0&
#687500
0!
00
0:
#750000
1!
0"
10
01
0;
1:
1A
#812500
0!
00
0:
#875000
1!
1"
10
11
1;
1:
0A
1@
0@
16
06
15
05
1&
0&
#937500
0!
00
0:
#1000000
1!
0"
10
01
0;
1:
1A
#1062500
0!
00
0:
#1125000
1!
10
1:
1@
16
15
1&
#1187500
0!
00
0:
#1250000
1!
1"
10
11
1;
1:
0A
1?
0?
0@
17
06
07
14
05
04
1%
0&
0%
#1312500
0!
00
0:
#1375000
1!
0"
10
01
0;
1:
1A
#1437500
0!
00
0:
#1500000
1!
1"
10
11
1;
1:
0A
1@
0@
16
06
15
05
1&
0&
#1562500
0!
00
0:
#1625000
1!
10
1:
#1687500
0!
00
0:
#1750000
1!
0"
10
01
0;
1:
1A
#1812500
0!
00
0:
#1875000
1!
10
1:
1@
16
15
1&
#1937500
0!
00
0:
#2000000
1!
1"
10
11
1;
1:
0A
1?
0?
0@
17
06
07
14
05
04
1%
0&
0%
#2062500
0!
00
0:
#2125000
1!
0"
10
01
0;
1:
1A
#2187500
0!
00
0:
#2250000
1!
10
1:
1@
16
15
1&
#2312500
0!
00
0:
#2375000
1!
1"
10
11
1;
1:
0A
1?
0?
0@
17
06
07
14
05
04
1%
0&
0%
#2437500
0!
00
0:
#2500000
1!
10
1:
#2562500
0!
00
0:
#2625000
1!
0"
10
01
0;
1:
1A
#2687500
0!
00
0:
#2750000
1!
10
1:
1@
16
15
1&
#2812500
0!
00
0:
#2875000
1!
1"
10
11
1;
1:
0A
1?
0?
0@
17
06
07
14
05
04
1%
0&
0%
#2937500
0!
00
0:
#3000000
1!
0"
10
01
0;
1:
1A
#3062500
0!
00
0:
#3125000
1!
10
1:
1@
16
15
1&
#3187500
0!
00
0:
#3250000
1!
1"
10
11
1;
1:
0A
1?
0?
0@
17
06
07
14
05
04
1%
0&
0%
#3312500
0!
00
0:
#3375000
1!
10
1:
#3437500
0!
00
0:
#3500000
1!
0"
10
01
0;
1:
1A
#3562500
0!
00
0:
#3625000
1!
1"
10
11
1;
1:
0A
1@
0@
16
06
15
05
1&
0&
#3687500
0!
00
0:
#3750000
1!
0"
10
01
0;
1:
1A
#3812500
0!
00
0:
#3875000
1!
1"
10
11
1;
1:
0A
1@
0@
16
06
15
05
1&
0&
#3937500
0!
00
0:
#4000000
1!
10
1:
#4062500
0!
00
0:
#4125000
1!
0"
10
01
0;
1:
1A
#4187500
0!
00
0:
#4250000
1!
10
1:
1@
16
15
1&
#4312500
0!
00
0:
#4375000
1!
10
1:
1?
17
14
1%
#4437500
0!
00
0:
#4500000
1!
10
1:
1>
18
13
1$
#4562500
0!
00
0:
#4625000
1!
10
1:
1=
0<
19
12
1#
#4687500
0!
00
0:
#4750000
1!
1"
10
11
1;
1:
0A
0@
0?
0>
0=
1<
06
09
08
07
05
02
03
04
0&
0%
0$
0#
#4812500
0!
00
0:
#4875000
1!
0"
10
01
0;
1:
1A
#4937500
0!
00
0:
#5000000
1!
1"
10
11
1;
1:
0A
1@
0@
16
06
15
05
1&
0&
#5062500
0!
00
0:
#5125000
1!
10
1:
#5187500
0!
00
0:
#5250000
1!
10
1:
#5312500
0!
00
0:
#5375000
1!
10
1:
#5437500
0!
00
0:
#5500000
1!
10
1:
#5562500
0!
00
0:
#5625000
1!
10
1:
#5687500
0!
00
0:
#5750000
1!
0"
10
01
0;
1:
1A
#5812500
0!
00
0:
#5875000
1!
10
1:
1@
16
15
1&
#5937500
0!
00
0:
#6000000
1!
1"
10
11
1;
1:
0A
1?
0?
0@
17
06
07
14
05
04
1%
0&
0%
#6062500
0!
00
0:
#6125000
1!
10
1:
#6187500
0!
00
0:
#6250000
1!
0"
10
01
0;
1:
1A
#6312500
0!
00
0:
#6375000
1!
10
1:
1@
16
15
1&
#6437500
0!
00
0:
#6500000
1!
1"
10
11
1;
1:
0A
1?
0?
0@
17
06
07
14
05
04
1%
0&
0%
#6562500
0!
00
0:
#6625000
1!
0"
10
01
0;
1:
1A
#6687500
0!
00
0:
#6750000
1!
10
1:
1@
16
15
1&
#6812500
0!
00
0:
#6875000
1!
1"
10
11
1;
1:
0A
1?
0?
0@
17
06
07
14
05
04
1%
0&
0%
#6937500
0!
00
0:
#7000000
1!
0"
10
01
0;
1:
1A
#7062500
0!
00
0:
#7125000
1!
10
1:
1@
16
15
1&
#7187500
0!
00
0:
#7250000
1!
10
1:
1?
17
14
1%
#7312500
0!
00
0:
#7375000
1!
10
1:
1>
18
13
1$
#7437500
0!
00
0:
#7500000
1!
10
1:
1=
0<
19
12
1#
#7562500
0!
00
0:
#7625000
1!
1"
10
11
1;
1:
0A
0@
0?
0>
0=
1<
06
09
08
07
05
02
03
04
0&
0%
0$
0#
#7687500
0!
00
0:
#7750000
1!
10
1:
#7812500
0!
00
0:
#7875000
1!
0"
10
01
0;
1:
1A
#7937500
0!
00
0:
