Lab 2 ex2 - comp_8bit_w_process/simulation/qsim/comp_8bit.msim.vcd
$comment
	File created using the following command:
		vcd file comp_8bit.msim.vcd -direction
$end
$date
	Tue Feb 12 23:42:09 2019
$end
$version
	ModelSim Version 10.5b
$end
$timescale
	1ps
$end

$scope module comp_8bit_vhd_vec_tst $end
$var wire 1 ! A [7] $end
$var wire 1 " A [6] $end
$var wire 1 # A [5] $end
$var wire 1 $ A [4] $end
$var wire 1 % A [3] $end
$var wire 1 & A [2] $end
$var wire 1 ' A [1] $end
$var wire 1 ( A [0] $end
$var wire 1 ) B [7] $end
$var wire 1 * B [6] $end
$var wire 1 + B [5] $end
$var wire 1 , B [4] $end
$var wire 1 - B [3] $end
$var wire 1 . B [2] $end
$var wire 1 / B [1] $end
$var wire 1 0 B [0] $end
$var wire 1 1 E $end
$var wire 1 2 G $end
$var wire 1 3 L $end

$scope module i1 $end
$var wire 1 4 gnd $end
$var wire 1 5 vcc $end
$var wire 1 6 unknown $end
$var wire 1 7 devoe $end
$var wire 1 8 devclrn $end
$var wire 1 9 devpor $end
$var wire 1 : ww_devoe $end
$var wire 1 ; ww_devclrn $end
$var wire 1 < ww_devpor $end
$var wire 1 = ww_A [7] $end
$var wire 1 > ww_A [6] $end
$var wire 1 ? ww_A [5] $end
$var wire 1 @ ww_A [4] $end
$var wire 1 A ww_A [3] $end
$var wire 1 B ww_A [2] $end
$var wire 1 C ww_A [1] $end
$var wire 1 D ww_A [0] $end
$var wire 1 E ww_B [7] $end
$var wire 1 F ww_B [6] $end
$var wire 1 G ww_B [5] $end
$var wire 1 H ww_B [4] $end
$var wire 1 I ww_B [3] $end
$var wire 1 J ww_B [2] $end
$var wire 1 K ww_B [1] $end
$var wire 1 L ww_B [0] $end
$var wire 1 M ww_L $end
$var wire 1 N ww_G $end
$var wire 1 O ww_E $end
$var wire 1 P \L~output_o\ $end
$var wire 1 Q \G~output_o\ $end
$var wire 1 R \E~output_o\ $end
$var wire 1 S \A[7]~input_o\ $end
$var wire 1 T \B[7]~input_o\ $end
$var wire 1 U \A[6]~input_o\ $end
$var wire 1 V \B[6]~input_o\ $end
$var wire 1 W \A[5]~input_o\ $end
$var wire 1 X \B[5]~input_o\ $end
$var wire 1 Y \A[4]~input_o\ $end
$var wire 1 Z \B[4]~input_o\ $end
$var wire 1 [ \A[3]~input_o\ $end
$var wire 1 \ \B[3]~input_o\ $end
$var wire 1 ] \A[2]~input_o\ $end
$var wire 1 ^ \B[2]~input_o\ $end
$var wire 1 _ \A[1]~input_o\ $end
$var wire 1 ` \B[1]~input_o\ $end
$var wire 1 a \A[0]~input_o\ $end
$var wire 1 b \B[0]~input_o\ $end
$var wire 1 c \LessThan0~1_cout\ $end
$var wire 1 d \LessThan0~3_cout\ $end
$var wire 1 e \LessThan0~5_cout\ $end
$var wire 1 f \LessThan0~7_cout\ $end
$var wire 1 g \LessThan0~9_cout\ $end
$var wire 1 h \LessThan0~11_cout\ $end
$var wire 1 i \LessThan0~13_cout\ $end
$var wire 1 j \LessThan0~14_combout\ $end
$var wire 1 k \LessThan1~1_cout\ $end
$var wire 1 l \LessThan1~3_cout\ $end
$var wire 1 m \LessThan1~5_cout\ $end
$var wire 1 n \LessThan1~7_cout\ $end
$var wire 1 o \LessThan1~9_cout\ $end
$var wire 1 p \LessThan1~11_cout\ $end
$var wire 1 q \LessThan1~13_cout\ $end
$var wire 1 r \LessThan1~14_combout\ $end
$var wire 1 s \LGE_vector~0_combout\ $end
$var wire 1 t \LGE_vector~1_combout\ $end
$var wire 1 u \LGE_vector~2_combout\ $end
$var wire 1 v \LGE_vector~3_combout\ $end
$var wire 1 w \LGE_vector~4_combout\ $end
$var wire 1 x \LGE_vector~5_combout\ $end
$var wire 1 y \LGE_vector~6_combout\ $end
$upscope $end
$upscope $end
$enddefinitions $end
#0
$dumpvars
01
02
13
04
15
x6
17
18
19
1:
1;
1<
1M
0N
0O
1P
0Q
0R
0S
1T
0U
1V
0W
0X
0Y
1Z
1[
1\
0]
1^
1_
1`
1a
1b
0c
1d
1e
0f
1g
0h
1i
1j
0k
1l
0m
1n
0o
1p
0q
0r
0s
1t
0u
0v
0w
0x
0y
0!
0"
0#
0$
1%
0&
1'
1(
1)
1*
0+
1,
1-
1.
1/
10
0=
0>
0?
0@
1A
0B
1C
1D
1E
1F
0G
1H
1I
1J
1K
1L
$end
#62500
1!
1"
1#
0%
0'
0)
0.
00
0C
0A
1?
1>
1=
0L
0J
0E
0T
0^
0b
1S
1U
1W
0[
0_
0d
1h
0p
1k
0t
0e
0j
1r
1s
1q
0i
1e
0P
0M
1Q
03
1N
12
#125000
0!
0"
1%
1'
1&
0(
0*
1+
0-
0D
1C
1B
1A
0>
0=
0I
1G
0F
0V
1X
0\
0S
0U
1[
1]
1_
0a
0k
1d
0l
1t
0e
1m
1f
0n
0h
1p
1w
0q
1i
1l
1j
0r
0s
1P
1M
0Q
13
0N
02
#187500
0%
0'
0&
1*
1-
0#
1)
10
1$
0,
0C
0B
0A
1@
0?
1L
1I
0H
1F
1E
1T
1V
0Z
1\
1b
0W
1Y
0[
0]
0_
0d
0m
1c
0t
0f
1n
0g
1o
0w
1e
#250000
1%
1&
0-
0)
00
1"
0+
1.
0/
1B
1A
1>
0L
0K
1J
0I
0G
0E
0T
0X
0\
1^
0`
0b
1U
1[
1]
0c
1t
1f
0n
1h
0p
1w
1q
0i
1d
0e
0j
1r
1s
0P
0M
1Q
03
1N
12
#312500
0%
0&
1-
10
1+
0.
1/
0*
0$
1,
1!
1(
1D
0B
0A
0@
1=
1L
1K
0J
1I
1H
1G
0F
0V
1X
1Z
1\
0^
1`
1b
1S
0Y
0[
0]
1a
0d
0t
0f
1n
1g
0o
0h
1p
0w
1e
#375000
1&
00
0+
1.
0/
1$
0,
1)
1'
1#
1C
1B
1@
1?
0L
0K
1J
0H
0G
1E
1T
0X
0Z
1^
0`
0b
1W
1Y
1]
1_
1k
1d
0l
0g
1o
1h
0p
1m
0e
#437500
0&
0.
0$
0)
0'
0#
0-
0!
0(
0"
0D
0C
0B
0@
0?
0>
0=
0J
0I
0E
0T
0\
0^
0S
0U
0W
0Y
0]
0_
0a
0k
1t
1g
0o
1v
1f
0n
1u
1w
1o
0g
1p
0h
1x
1l
0m
1i
0q
1h
0p
1q
0i
0r
1j
1n
0o
0s
0j
1r
1s
1p
1P
0q
1M
0P
0Q
13
0r
0M
0N
1Q
03
02
0s
1y
1N
12
1R
0Q
1O
0N
11
02
#500000
1&
1.
1$
1)
1'
1"
10
1+
1,
1%
1*
1C
1B
1A
1@
1>
1L
1J
1H
1G
1F
1E
1T
1V
1X
1Z
1^
1b
1U
1Y
1[
1]
1_
0l
0n
1c
0t
0u
0h
0v
1j
0w
0y
1i
0x
1o
1m
1P
1M
0R
13
0O
01
#562500
0&
0"
00
0+
0,
0%
0*
1#
1-
0B
0A
1?
0>
0L
1I
0H
0G
0F
0V
0X
0Z
1\
0b
0U
1W
0[
0]
1e
0m
0c
0f
1n
1h
0p
1q
0i
#625000
1&
10
1,
0$
0'
1(
1D
0C
1B
0@
1L
1H
1Z
1b
0Y
1]
0_
1a
1l
0e
1m
1t
1g
0o
0m
#687500
0&
1'
1%
0#
0-
0.
0)
1/
1C
0B
1A
0?
1K
0J
0I
0E
0T
0\
0^
1`
0W
1[
0]
1_
0h
1p
1f
0n
0j
1r
1w
1s
0q
1i
1j
0r
0P
0s
0M
1Q
03
1N
1P
12
1M
0Q
13
0N
02
#750000
1&
0%
0/
00
0(
1"
1*
1!
0D
1B
0A
1>
1=
0L
0K
1F
1V
0`
0b
1S
1U
0[
1]
0a
1m
1n
0j
1r
0l
0t
0w
1s
0n
0P
0M
1Q
03
1N
12
#812500
0&
10
1(
0'
1)
1$
1+
1D
0C
0B
1@
1L
1G
1E
1T
1X
1b
1Y
0]
0_
1a
1l
1u
0g
1o
1t
1j
0r
1w
0s
0m
1n
1P
0o
1M
0Q
13
0N
02
#875000
1&
00
0)
0$
0+
1%
0"
0!
1#
1.
1B
1A
0@
1?
0>
0=
0L
1J
0G
0E
0T
0X
1^
0b
0S
0U
1W
0Y
1[
1]
0n
1g
1k
0t
0u
1h
0p
0w
0l
1m
#937500
10
1)
1$
1"
1!
0#
0.
1-
1L
0J
1I
1E
1@
0?
1>
1=
1S
1U
0W
1Y
1T
1\
0^
1b
0k
1t
0g
1o
0h
1p
1v
0i
1q
1w
1r
0j
0q
1i
0p
1h
1l
0i
1q
1j
0r
1s
0s
1r
0j
0P
1s
0M
1Q
1P
03
1N
1M
0P
0Q
12
13
0M
0N
1Q
03
02
1N
12
