Lab 3 ex2 - D flip flop/simulation/qsim/d_ff.msim.vcd
$comment
	File created using the following command:
		vcd file d_ff.msim.vcd -direction
$end
$date
	Thu Feb 21 01:38:02 2019
$end
$version
	ModelSim Version 10.5b
$end
$timescale
	1ps
$end

$scope module d_ff_vhd_vec_tst $end
$var wire 1 ! CLK $end
$var wire 1 " D $end
$var wire 1 # Q $end

$scope module i1 $end
$var wire 1 $ gnd $end
$var wire 1 % vcc $end
$var wire 1 & unknown $end
$var wire 1 ' devoe $end
$var wire 1 ( devclrn $end
$var wire 1 ) devpor $end
$var wire 1 * ww_devoe $end
$var wire 1 + ww_devclrn $end
$var wire 1 , ww_devpor $end
$var wire 1 - ww_CLK $end
$var wire 1 . ww_D $end
$var wire 1 / ww_Q $end
$var wire 1 0 \Q~output_o\ $end
$var wire 1 1 \CLK~input_o\ $end
$var wire 1 2 \D~input_o\ $end
$var wire 1 3 \Q~reg0_q\ $end
$upscope $end
$upscope $end
$enddefinitions $end
#0
$dumpvars
1!
1"
0#
0$
1%
x&
1'
1(
1)
1*
1+
1,
1-
1.
0/
00
11
12
03
$end
#62500
0!
0-
01
#125000
1!
0"
1-
0.
02
11
13
10
1/
1#
#187500
0!
1"
0-
1.
12
01
#250000
1!
0"
1-
0.
02
11
#312500
0!
1"
0-
1.
12
01
#375000
1!
0"
1-
0.
02
11
#437500
0!
1"
0-
1.
12
01
#500000
1!
1-
11
#562500
0!
0-
01
#625000
1!
0"
1-
0.
02
11
#687500
0!
1"
0-
1.
12
01
#750000
1!
1-
11
#812500
0!
0"
0-
0.
02
01
#875000
1!
1-
11
03
00
0/
0#
#937500
0!
0-
01
#1000000
1!
1"
1-
1.
12
11
#1062500
0!
0"
0-
0.
02
01
#1125000
1!
1"
1-
1.
12
11
#1187500
0!
0-
01
#1250000
1!
0"
1-
0.
02
11
13
10
1/
1#
#1312500
0!
1"
0-
1.
12
01
#1375000
1!
0"
1-
0.
02
11
#1437500
0!
1"
0-
1.
12
01
#1500000
1!
1-
11
#1562500
0!
0-
01
#1625000
1!
0"
1-
0.
02
11
#1687500
0!
0-
01
#1750000
1!
1-
11
03
00
0/
0#
#1812500
0!
0-
01
#1875000
1!
1"
1-
1.
12
11
#1937500
0!
0-
01
#2000000
1!
0"
1-
0.
02
11
13
10
1/
1#
#2062500
0!
0-
01
#2125000
1!
1-
11
03
00
0/
0#
#2187500
0!
0-
01
#2250000
1!
1"
1-
1.
12
11
#2312500
0!
0"
0-
0.
02
01
#2375000
1!
1"
1-
1.
12
11
#2437500
0!
0-
01
#2500000
1!
0"
1-
0.
02
11
13
10
1/
1#
#2562500
0!
0-
01
#2625000
1!
1"
1-
1.
12
11
03
00
0/
0#
#2687500
0!
0"
0-
0.
02
01
#2750000
1!
1-
11
#2812500
0!
1"
0-
1.
12
01
#2875000
1!
1-
11
13
10
1/
1#
#2937500
0!
0-
01
#3000000
1!
0"
1-
0.
02
11
#3062500
0!
1"
0-
1.
12
01
#3125000
1!
1-
11
#3187500
0!
0-
01
#3250000
1!
0"
1-
0.
02
11
#3312500
0!
0-
01
#3375000
1!
1"
1-
1.
12
11
03
00
0/
0#
#3437500
0!
0-
01
#3500000
1!
1-
11
13
10
1/
1#
#3562500
0!
0-
01
#3625000
1!
1-
11
#3687500
0!
0"
0-
0.
02
01
#3750000
1!
1"
1-
1.
12
11
03
00
0/
0#
#3812500
0!
0-
01
#3875000
1!
1-
11
13
10
1/
1#
#3937500
0!
0"
0-
0.
02
01
#4000000
1!
1-
11
03
00
0/
0#
#4062500
0!
0-
01
#4125000
1!
1"
1-
1.
12
11
#4187500
0!
0"
0-
0.
02
01
#4250000
1!
1"
1-
1.
12
11
#4312500
0!
0-
01
#4375000
1!
1-
11
13
10
1/
1#
#4437500
0!
0"
0-
0.
02
01
#4500000
1!
1-
11
03
00
0/
0#
#4562500
0!
1"
0-
1.
12
01
#4625000
1!
0"
1-
0.
02
11
13
10
1/
1#
#4687500
0!
1"
0-
1.
12
01
#4750000
1!
0"
1-
0.
02
11
#4812500
0!
1"
0-
1.
12
01
#4875000
1!
0"
1-
0.
02
11
#4937500
0!
1"
0-
1.
12
01
#5000000
1!
0"
1-
0.
02
11
#5062500
0!
0-
01
#5125000
1!
1"
1-
1.
12
11
03
00
0/
0#
#5187500
0!
0-
01
#5250000
1!
1-
11
13
10
1/
1#
#5312500
0!
0"
0-
0.
02
01
#5375000
1!
1"
1-
1.
12
11
03
00
0/
0#
#5437500
0!
0-
01
#5500000
1!
1-
11
13
10
1/
1#
#5562500
0!
0"
0-
0.
02
01
#5625000
1!
1"
1-
1.
12
11
03
00
0/
0#
#5687500
0!
0-
01
#5750000
1!
1-
11
13
10
1/
1#
#5812500
0!
0-
01
#5875000
1!
1-
11
#5937500
0!
0-
01
#6000000
1!
1-
11
#6062500
0!
0-
01
#6125000
1!
1-
11
#6187500
0!
0-
01
#6250000
1!
1-
11
#6312500
0!
0-
01
#6375000
1!
1-
11
#6437500
0!
0"
0-
0.
02
01
#6500000
1!
1"
1-
1.
12
11
03
00
0/
0#
#6562500
0!
0"
0-
0.
02
01
#6625000
1!
1-
11
#6687500
0!
1"
0-
1.
12
01
#6750000
1!
0"
1-
0.
02
11
13
10
1/
1#
#6812500
0!
0-
01
#6875000
1!
1"
1-
1.
12
11
03
00
0/
0#
#6937500
0!
0-
01
#7000000
1!
0"
1-
0.
02
11
13
10
1/
1#
#7062500
0!
0-
01
#7125000
1!
1-
11
03
00
0/
0#
#7187500
0!
0-
01
#7250000
1!
1"
1-
1.
12
11
#7312500
0!
0-
01
#7375000
1!
1-
11
13
10
1/
1#
#7437500
0!
0-
01
#7500000
1!
0"
1-
0.
02
11
#7562500
0!
0-
01
#7625000
1!
1"
1-
1.
12
11
03
00
0/
0#
#7687500
0!
0"
0-
0.
02
01
#7750000
1!
1"
1-
1.
12
11
#7812500
0!
0-
01
#7875000
1!
1-
11
13
10
1/
1#
#7937500
0!
0-
01
