Lab 3/Lab 3 ex 1 - T flip flop/simulation/qsim/t_ff.msim.vcd
$comment
	File created using the following command:
		vcd file t_ff.msim.vcd -direction
$end
$date
	Thu Feb 21 19:02:44 2019
$end
$version
	ModelSim Version 10.5b
$end
$timescale
	1ps
$end

$scope module t_ff_vhd_vec_tst $end
$var wire 1 ! CLK $end
$var wire 1 " Q $end
$var wire 1 # T $end

$scope module i1 $end
$var wire 1 $ gnd $end
$var wire 1 % vcc $end
$var wire 1 & unknown $end
$var wire 1 ' devoe $end
$var wire 1 ( devclrn $end
$var wire 1 ) devpor $end
$var wire 1 * ww_devoe $end
$var wire 1 + ww_devclrn $end
$var wire 1 , ww_devpor $end
$var wire 1 - ww_T $end
$var wire 1 . ww_CLK $end
$var wire 1 / ww_Q $end
$var wire 1 0 \Q~output_o\ $end
$var wire 1 1 \CLK~input_o\ $end
$var wire 1 2 \T~input_o\ $end
$var wire 1 3 \jk_ff|qtemp~0_combout\ $end
$var wire 1 4 \jk_ff|qtemp~q\ $end
$upscope $end
$upscope $end
$enddefinitions $end
#0
$dumpvars
1!
0"
1#
0$
1%
x&
1'
1(
1)
1*
1+
1,
1-
1.
0/
00
11
12
13
04
$end
#62500
0!
0.
01
#125000
1!
0#
1.
0-
02
11
14
03
13
10
1/
1"
#187500
0!
1#
0.
1-
12
01
03
#250000
1!
0#
1.
0-
02
11
04
13
03
00
0/
0"
#312500
0!
0.
01
#375000
1!
1.
11
#437500
0!
0.
01
#500000
1!
1#
1.
1-
12
11
13
#562500
0!
0#
0.
0-
02
01
03
#625000
1!
1#
1.
1-
12
11
13
#687500
0!
0#
0.
0-
02
01
03
#750000
1!
1.
11
#812500
0!
0.
01
#875000
1!
1#
1.
1-
12
11
13
#937500
0!
0#
0.
0-
02
01
03
#1000000
1!
1.
11
#1062500
0!
0.
01
#1125000
1!
1#
1.
1-
12
11
13
#1187500
0!
0.
01
#1250000
1!
0#
1.
0-
02
11
14
03
13
10
1/
1"
#1312500
0!
0.
01
#1375000
1!
1#
1.
1-
12
11
03
#1437500
0!
0.
01
#1500000
1!
0#
1.
0-
02
11
04
13
03
00
0/
0"
#1562500
0!
1#
0.
1-
12
01
13
#1625000
1!
0#
1.
0-
02
11
14
03
13
10
1/
1"
#1687500
0!
0.
01
#1750000
1!
1.
11
#1812500
0!
1#
0.
1-
12
01
03
#1875000
1!
1.
11
04
13
00
0/
0"
#1937500
0!
0.
01
#2000000
1!
1.
11
14
03
10
1/
1"
#2062500
0!
0#
0.
0-
02
01
13
#2125000
1!
1.
11
#2187500
0!
0.
01
#2250000
1!
1.
11
#2312500
0!
0.
01
#2375000
1!
1#
1.
1-
12
11
03
#2437500
0!
0#
0.
0-
02
01
13
#2500000
1!
1#
1.
1-
12
11
03
#2562500
0!
0#
0.
0-
02
01
13
#2625000
1!
1.
11
#2687500
0!
1#
0.
1-
12
01
03
#2750000
1!
1.
11
04
13
00
0/
0"
#2812500
0!
0#
0.
0-
02
01
03
#2875000
1!
1#
1.
1-
12
11
13
#2937500
0!
0.
01
#3000000
1!
0#
1.
0-
02
11
14
03
13
10
1/
1"
#3062500
0!
0.
01
#3125000
1!
1.
11
#3187500
0!
1#
0.
1-
12
01
03
#3250000
1!
1.
11
04
13
00
0/
0"
#3312500
0!
0#
0.
0-
02
01
03
#3375000
1!
1.
11
#3437500
0!
0.
01
#3500000
1!
1.
11
#3562500
0!
0.
01
#3625000
1!
1#
1.
1-
12
11
13
#3687500
0!
0#
0.
0-
02
01
03
#3750000
1!
1.
11
#3812500
0!
1#
0.
1-
12
01
13
#3875000
1!
0#
1.
0-
02
11
14
03
13
10
1/
1"
#3937500
0!
0.
01
#4000000
1!
1.
11
#4062500
0!
0.
01
#4125000
1!
1.
11
#4187500
0!
0.
01
#4250000
1!
1.
11
#4312500
0!
1#
0.
1-
12
01
03
#4375000
1!
0#
1.
0-
02
11
04
13
03
00
0/
0"
#4437500
0!
0.
01
#4500000
1!
1#
1.
1-
12
11
13
#4562500
0!
0#
0.
0-
02
01
03
#4625000
1!
1#
1.
1-
12
11
13
#4687500
0!
0.
01
#4750000
1!
0#
1.
0-
02
11
14
03
13
10
1/
1"
#4812500
0!
0.
01
#4875000
1!
1.
11
#4937500
0!
1#
0.
1-
12
01
03
#5000000
1!
0#
1.
0-
02
11
04
13
03
00
0/
0"
#5062500
0!
1#
0.
1-
12
01
13
#5125000
1!
0#
1.
0-
02
11
14
03
13
10
1/
1"
#5187500
0!
0.
01
#5250000
1!
1.
11
#5312500
0!
1#
0.
1-
12
01
03
#5375000
1!
0#
1.
0-
02
11
04
13
03
00
0/
0"
#5437500
0!
1#
0.
1-
12
01
13
#5500000
1!
0#
1.
0-
02
11
14
03
13
10
1/
1"
#5562500
0!
0.
01
#5625000
1!
1.
11
#5687500
0!
1#
0.
1-
12
01
03
#5750000
1!
1.
11
04
13
00
0/
0"
#5812500
0!
0.
01
#5875000
1!
1.
11
14
03
10
1/
1"
#5937500
0!
0#
0.
0-
02
01
13
#6000000
1!
1#
1.
1-
12
11
03
#6062500
0!
0#
0.
0-
02
01
13
#6125000
1!
1.
11
#6187500
0!
0.
01
#6250000
1!
1.
11
#6312500
0!
0.
01
#6375000
1!
1.
11
#6437500
0!
1#
0.
1-
12
01
03
#6500000
1!
1.
11
04
13
00
0/
0"
#6562500
0!
0#
0.
0-
02
01
03
#6625000
1!
1#
1.
1-
12
11
13
#6687500
0!
0.
01
#6750000
1!
0#
1.
0-
02
11
14
03
13
10
1/
1"
#6812500
0!
0.
01
#6875000
1!
1.
11
#6937500
0!
1#
0.
1-
12
01
03
#7000000
1!
0#
1.
0-
02
11
04
13
03
00
0/
0"
#7062500
0!
1#
0.
1-
12
01
13
#7125000
1!
0#
1.
0-
02
11
14
03
13
10
1/
1"
#7187500
0!
1#
0.
1-
12
01
03
#7250000
1!
0#
1.
0-
02
11
04
13
03
00
0/
0"
#7312500
0!
1#
0.
1-
12
01
13
#7375000
1!
0#
1.
0-
02
11
14
03
13
10
1/
1"
#7437500
0!
1#
0.
1-
12
01
03
#7500000
1!
1.
11
04
13
00
0/
0"
#7562500
0!
0.
01
#7625000
1!
0#
1.
0-
02
11
14
03
13
10
1/
1"
#7687500
0!
1#
0.
1-
12
01
03
#7750000
1!
0#
1.
0-
02
11
04
13
03
00
0/
0"
#7812500
0!
1#
0.
1-
12
01
13
#7875000
1!
1.
11
14
03
10
1/
1"
#7937500
0!
0#
0.
0-
02
01
13
