Lab 1/Lab 1 ex4 - mux 4to1/simulation/qsim/mux_4to1.msim.vcd
$comment
	File created using the following command:
		vcd file mux_4to1.msim.vcd -direction
$end
$date
	Mon Jan 21 22:36:43 2019
$end
$version
	ModelSim Version 10.5b
$end
$timescale
	1ps
$end

$scope module mux_4to1_vhd_vec_tst $end
$var wire 1 ! D0 $end
$var wire 1 " D1 $end
$var wire 1 # D2 $end
$var wire 1 $ D3 $end
$var wire 1 % s0 $end
$var wire 1 & s1 $end
$var wire 1 ' y $end

$scope module i1 $end
$var wire 1 ( gnd $end
$var wire 1 ) vcc $end
$var wire 1 * unknown $end
$var wire 1 + devoe $end
$var wire 1 , devclrn $end
$var wire 1 - devpor $end
$var wire 1 . ww_devoe $end
$var wire 1 / ww_devclrn $end
$var wire 1 0 ww_devpor $end
$var wire 1 1 ww_s1 $end
$var wire 1 2 ww_s0 $end
$var wire 1 3 ww_D0 $end
$var wire 1 4 ww_D1 $end
$var wire 1 5 ww_D2 $end
$var wire 1 6 ww_D3 $end
$var wire 1 7 ww_y $end
$var wire 1 8 \y~output_o\ $end
$var wire 1 9 \s1~input_o\ $end
$var wire 1 : \D1~input_o\ $end
$var wire 1 ; \s0~input_o\ $end
$var wire 1 < \D0~input_o\ $end
$var wire 1 = \mux3|y~0_combout\ $end
$var wire 1 > \D3~input_o\ $end
$var wire 1 ? \D2~input_o\ $end
$var wire 1 @ \mux3|y~1_combout\ $end
$upscope $end
$upscope $end
$enddefinitions $end
#0
$dumpvars
1!
0"
0#
0$
0%
0&
1'
0(
1)
x*
1+
1,
1-
1.
1/
10
01
02
13
04
05
06
17
18
09
0:
0;
1<
1=
0>
0?
1@
$end
#62500
0!
03
0<
0=
0@
08
07
0'
#125000
1#
1"
15
14
1:
1?
#187500
1!
1$
13
16
1>
1<
1=
1@
18
17
1'
#250000
0$
0#
06
05
0?
0>
#312500
1#
0!
0"
15
03
04
0:
0<
1?
0=
0@
08
07
0'
#375000
1"
14
1:
#437500
0#
1!
1$
05
13
16
1>
1<
0?
1=
1@
18
17
1'
#500000
1#
0!
0"
1%
15
03
04
12
1;
0:
0<
1?
0=
0@
08
07
0'
#562500
0#
0$
05
06
0>
0?
#687500
1#
1$
1!
15
16
13
1<
1>
1?
#750000
0$
0!
1"
06
03
14
1:
0<
0>
1=
1@
18
17
1'
#812500
1$
1!
16
13
1<
1>
#875000
0!
0"
0#
03
04
05
0?
0:
0<
0=
0@
08
07
0'
#937500
0$
06
0>
#1000000
0%
1&
02
11
19
0;
#1062500
1!
13
1<
#1125000
1$
16
1>
#1187500
0$
06
0>
#1250000
1$
0!
1#
16
03
15
1?
0<
1>
1@
18
17
1'
#1312500
0$
0#
06
05
0?
0>
0@
08
07
0'
#1375000
1$
1#
1!
16
15
13
1<
1?
1>
1@
18
17
1'
#1437500
0#
1"
05
14
1:
0?
0@
08
07
0'
#1500000
1#
0"
1%
15
04
12
1;
0:
1?
1@
1=
18
17
1'
#1562500
0#
0!
05
03
0<
0?
#1625000
1!
0$
13
06
0>
1<
0@
08
07
0'
#1687500
1#
15
1?
#1750000
1$
1"
16
14
1:
1>
1@
18
17
1'
#1812500
0$
0!
06
03
0<
0>
0@
08
07
0'
#1875000
1!
0"
0#
13
04
05
0?
0:
1<
#1937500
0!
1$
03
16
1>
0<
1@
18
17
1'
