Lab 1 ex4 - mux 2to1/simulation/qsim/mux_2to1.msim.vcd
$comment
	File created using the following command:
		vcd file mux_2to1.msim.vcd -direction
$end
$date
	Tue Jan 22 00:07:30 2019
$end
$version
	ModelSim Version 10.5b
$end
$timescale
	1ps
$end

$scope module mux_2to1_vhd_vec_tst $end
$var wire 1 ! D0 $end
$var wire 1 " D1 $end
$var wire 1 # s $end
$var wire 1 $ y $end

$scope module i1 $end
$var wire 1 % gnd $end
$var wire 1 & vcc $end
$var wire 1 ' unknown $end
$var wire 1 ( devoe $end
$var wire 1 ) devclrn $end
$var wire 1 * devpor $end
$var wire 1 + ww_devoe $end
$var wire 1 , ww_devclrn $end
$var wire 1 - ww_devpor $end
$var wire 1 . ww_s $end
$var wire 1 / ww_D1 $end
$var wire 1 0 ww_D0 $end
$var wire 1 1 ww_y $end
$var wire 1 2 \y~output_o\ $end
$var wire 1 3 \D1~input_o\ $end
$var wire 1 4 \D0~input_o\ $end
$var wire 1 5 \s~input_o\ $end
$var wire 1 6 \y~0_combout\ $end
$upscope $end
$upscope $end
$enddefinitions $end
#0
$dumpvars
1!
0"
0#
1$
0%
1&
x'
1(
1)
1*
1+
1,
1-
0.
0/
10
11
12
03
14
05
16
$end
#62500
1"
1/
13
#125000
0"
0/
03
#375000
1"
0!
1/
00
04
13
06
02
01
0$
#437500
0"
1!
0/
10
14
03
16
12
11
1$
#500000
1"
0!
1#
1/
00
1.
15
04
13
#625000
0"
1!
0/
10
14
03
06
02
01
0$
#687500
1"
1/
13
16
12
11
1$
#875000
0!
00
04
#937500
1!
0"
10
0/
03
14
06
02
01
0$
