Lab 1 ex4 - mux 8to1/simulation/qsim/mux_8to1.msim.vcd
$comment
	File created using the following command:
		vcd file mux_8to1.msim.vcd -direction
$end
$date
	Tue Jan 22 00:01:58 2019
$end
$version
	ModelSim Version 10.5b
$end
$timescale
	1ps
$end

$scope module mux_8to1_vhd_vec_tst $end
$var wire 1 ! D0 $end
$var wire 1 " D1 $end
$var wire 1 # D2 $end
$var wire 1 $ D3 $end
$var wire 1 % D4 $end
$var wire 1 & D5 $end
$var wire 1 ' D6 $end
$var wire 1 ( D7 $end
$var wire 1 ) s0 $end
$var wire 1 * s1 $end
$var wire 1 + s2 $end
$var wire 1 , y $end

$scope module i1 $end
$var wire 1 - gnd $end
$var wire 1 . vcc $end
$var wire 1 / unknown $end
$var wire 1 0 devoe $end
$var wire 1 1 devclrn $end
$var wire 1 2 devpor $end
$var wire 1 3 ww_devoe $end
$var wire 1 4 ww_devclrn $end
$var wire 1 5 ww_devpor $end
$var wire 1 6 ww_s2 $end
$var wire 1 7 ww_s1 $end
$var wire 1 8 ww_s0 $end
$var wire 1 9 ww_D0 $end
$var wire 1 : ww_D1 $end
$var wire 1 ; ww_D2 $end
$var wire 1 < ww_D3 $end
$var wire 1 = ww_D4 $end
$var wire 1 > ww_D5 $end
$var wire 1 ? ww_D6 $end
$var wire 1 @ ww_D7 $end
$var wire 1 A ww_y $end
$var wire 1 B \D7~input_o\ $end
$var wire 1 C \y~output_o\ $end
$var wire 1 D \D2~input_o\ $end
$var wire 1 E \s1~input_o\ $end
$var wire 1 F \D1~input_o\ $end
$var wire 1 G \s0~input_o\ $end
$var wire 1 H \D0~input_o\ $end
$var wire 1 I \mux4to1_1|mux3|y~0_combout\ $end
$var wire 1 J \D3~input_o\ $end
$var wire 1 K \mux4to1_1|mux3|y~1_combout\ $end
$var wire 1 L \s2~input_o\ $end
$var wire 1 M \D6~input_o\ $end
$var wire 1 N \mux2to1|y~0_combout\ $end
$var wire 1 O \D5~input_o\ $end
$var wire 1 P \D4~input_o\ $end
$var wire 1 Q \mux2to1|y~1_combout\ $end
$var wire 1 R \mux2to1|y~2_combout\ $end
$upscope $end
$upscope $end
$enddefinitions $end
#0
$dumpvars
1!
0"
0#
1$
0%
1&
1'
0(
0)
0*
0+
1,
0-
1.
x/
10
11
12
13
14
15
06
07
08
19
0:
0;
1<
0=
1>
1?
0@
1A
0B
1C
0D
0E
0F
0G
1H
1I
1J
1K
0L
1M
0N
1O
0P
0Q
1R
$end
#62500
0$
0!
0<
09
0H
0J
0I
0K
0R
0C
0A
0,
#125000
1$
1!
1(
0'
0&
1#
1"
1<
19
1@
0?
0>
1;
1:
1F
1D
0O
0M
1B
1H
1J
1I
1K
1R
1C
1A
1,
#187500
0$
0(
1'
1&
0#
0"
1%
0<
0@
1?
1>
0;
0:
1=
1P
0F
0D
1O
1M
0B
0J
1Q
#250000
0%
0!
1)
0=
09
18
1G
0H
0P
0I
0K
0R
0C
0A
0,
#312500
1%
1$
1(
1#
1"
1=
1<
1@
1;
1:
1F
1D
1B
1J
1P
1I
1K
1R
1C
1A
1,
#375000
0%
0#
0=
0;
0D
0P
#437500
0$
0(
0"
0'
0&
0<
0@
0:
0?
0>
0O
0M
0F
0B
0J
0I
0Q
0K
0R
0C
0A
0,
#500000
1"
1&
1%
1!
0)
1*
1:
1>
1=
19
08
17
1E
0G
1H
1P
1O
1F
#562500
0%
0!
1'
1#
0=
09
1?
1;
1D
1M
0H
0P
1N
1K
1R
1C
1A
1,
#687500
1%
0"
0&
1=
0:
0>
0O
0F
1P
#750000
0%
1"
1!
0'
1)
1$
0=
1:
19
0?
18
1<
1J
1G
0M
1H
1F
0P
0N
1I
#812500
0"
0!
1'
0$
1(
0:
09
1?
0<
1@
1B
0J
1M
0H
0F
1N
0K
0R
0C
0A
0,
#875000
1"
1&
0#
1:
1>
0;
0D
1O
1F
#937500
0&
1#
0(
0>
1;
0@
0B
1D
0O
#1000000
1(
0'
1$
1%
0)
0*
1+
1@
0?
1<
1=
08
07
16
1L
0E
0G
1P
1J
0M
1B
0I
1K
0N
1Q
1R
0K
1C
1A
1,
#1062500
0%
1&
0"
1!
0=
1>
0:
19
1H
0F
1O
0P
0Q
1I
1K
0R
0C
0A
0,
#1125000
1"
1:
1F
#1187500
0&
0!
0>
09
0H
0O
0I
0K
#1250000
0"
1%
0$
1)
0#
0:
1=
0<
18
0;
0D
1G
0J
1P
0F
#1312500
0%
1$
1'
0=
1<
1?
1M
1J
0P
#1375000
1%
0$
0'
1"
1&
1!
1=
0<
0?
1:
1>
19
1H
1O
1F
0M
0J
1P
1Q
1I
1K
1R
1C
1A
1,
#1437500
0%
1$
1'
0"
0&
0!
0(
0=
1<
1?
0:
0>
09
0@
0B
0H
0O
0F
1M
1J
0P
0Q
0I
0K
0R
0C
0A
0,
#1500000
1%
0$
0'
1&
1(
0)
1*
1=
0<
0?
1>
1@
08
17
1E
0G
1B
1O
0M
0J
1P
#1562500
1$
0(
1!
1#
1<
0@
19
1;
1D
1H
0B
1J
1K
#1625000
1(
0!
1'
0&
1@
09
1?
0>
0O
1M
0H
1B
1N
1R
1C
1A
1,
#1687500
0(
1!
0$
0#
1"
0@
19
0<
0;
1:
1F
0D
0J
1H
0B
0K
#1750000
0!
1&
0%
1)
09
1>
0=
18
1G
0P
1O
0H
1I
#1812500
1!
0&
1$
1#
0'
19
0>
1<
1;
0?
0M
1D
1J
0O
1H
1K
0N
0R
0C
0A
0,
#1875000
0!
1&
0#
1'
1%
1(
0"
09
1>
0;
1?
1=
1@
0:
0F
1B
1P
1M
0D
1O
0H
1N
1R
1C
1A
1,
#1937500
1!
0&
0(
1"
19
0>
0@
1:
1F
0B
0O
1H
