Lab 1 ex3/simulation/qsim/hex7seg_decoder.msim.vcd
$comment
	File created using the following command:
		vcd file hex7seg_decoder.msim.vcd -direction
$end
$date
	Mon Jan 21 14:15:54 2019
$end
$version
	ModelSim Version 10.5b
$end
$timescale
	1ps
$end

$scope module hex7seg_decoder_vhd_vec_tst $end
$var wire 1 ! D [3] $end
$var wire 1 " D [2] $end
$var wire 1 # D [1] $end
$var wire 1 $ D [0] $end
$var wire 1 % S [0] $end
$var wire 1 & S [1] $end
$var wire 1 ' S [2] $end
$var wire 1 ( S [3] $end
$var wire 1 ) S [4] $end
$var wire 1 * S [5] $end
$var wire 1 + S [6] $end

$scope module i1 $end
$var wire 1 , gnd $end
$var wire 1 - vcc $end
$var wire 1 . unknown $end
$var wire 1 / devoe $end
$var wire 1 0 devclrn $end
$var wire 1 1 devpor $end
$var wire 1 2 ww_devoe $end
$var wire 1 3 ww_devclrn $end
$var wire 1 4 ww_devpor $end
$var wire 1 5 ww_D [3] $end
$var wire 1 6 ww_D [2] $end
$var wire 1 7 ww_D [1] $end
$var wire 1 8 ww_D [0] $end
$var wire 1 9 ww_S [0] $end
$var wire 1 : ww_S [1] $end
$var wire 1 ; ww_S [2] $end
$var wire 1 < ww_S [3] $end
$var wire 1 = ww_S [4] $end
$var wire 1 > ww_S [5] $end
$var wire 1 ? ww_S [6] $end
$var wire 1 @ \S[6]~output_o\ $end
$var wire 1 A \S[5]~output_o\ $end
$var wire 1 B \S[4]~output_o\ $end
$var wire 1 C \S[3]~output_o\ $end
$var wire 1 D \S[2]~output_o\ $end
$var wire 1 E \S[1]~output_o\ $end
$var wire 1 F \S[0]~output_o\ $end
$var wire 1 G \D[2]~input_o\ $end
$var wire 1 H \D[3]~input_o\ $end
$var wire 1 I \D[1]~input_o\ $end
$var wire 1 J \D[0]~input_o\ $end
$var wire 1 K \Mux6~0_combout\ $end
$var wire 1 L \Mux5~0_combout\ $end
$var wire 1 M \Mux4~0_combout\ $end
$var wire 1 N \Mux3~0_combout\ $end
$var wire 1 O \Mux2~0_combout\ $end
$var wire 1 P \Mux1~0_combout\ $end
$var wire 1 Q \Mux0~0_combout\ $end
$var wire 1 R \ALT_INV_Mux6~0_combout\ $end
$upscope $end
$upscope $end
$enddefinitions $end
#0
$dumpvars
0,
1-
x.
1/
10
11
12
13
14
1@
0A
0B
0C
0D
0E
0F
0G
0H
0I
0J
0K
0L
0M
0N
0O
0P
0Q
1R
0!
0"
0#
0$
05
06
07
08
09
0:
0;
0<
0=
0>
1?
0%
0&
0'
0(
0)
0*
1+
$end
#62500
1$
18
1J
1L
1M
1N
1Q
1F
1C
1B
1A
19
1<
1=
1>
1*
1)
1(
1%
#125000
0$
1#
08
17
1I
0J
1K
0M
0N
1O
0Q
0R
0F
1D
0C
0B
0@
09
1;
0<
0=
0?
0)
0(
1'
0%
0+
#187500
1$
18
1J
1M
0O
0D
1B
0;
1=
1)
0'
#250000
0$
0#
1"
08
07
16
1G
0I
0J
0L
1N
1Q
1F
1C
0A
19
1<
0>
0*
1(
1%
#312500
1$
18
1J
0N
1P
0Q
0F
1E
0C
09
1:
0<
0(
1&
0%
#375000
0$
1#
08
17
1I
0J
0M
0B
0=
0)
#437500
1$
18
1J
0K
1L
1M
1N
0P
1R
0E
1C
1B
1A
1@
0:
1<
1=
1>
1?
1*
1)
1(
0&
1+
#500000
0$
0#
0"
1!
08
07
06
15
1H
0G
0I
0J
1K
0L
0M
0N
0R
0C
0B
0A
0@
0<
0=
0>
0?
0*
0)
0(
0+
#562500
1$
18
1J
1M
1B
1=
1)
#625000
0$
1#
08
17
1I
0J
0M
1N
1C
0B
1<
0=
0)
1(
#687500
1$
18
1J
0N
1P
1Q
1F
1E
0C
19
1:
0<
0(
1&
1%
#750000
0$
0#
1"
08
07
16
1G
0I
0J
0K
1O
0Q
1R
0F
1D
1@
09
1;
1?
1'
0%
1+
#812500
1$
18
1J
1K
1L
0O
0P
1Q
0R
1F
0E
0D
1A
0@
19
0:
0;
1>
0?
1*
0'
0&
1%
0+
#875000
0$
1#
08
17
1I
0J
0L
1O
1P
0Q
0F
1E
1D
0A
09
1:
1;
0>
0*
1'
1&
0%
#937500
1$
18
1J
1N
1C
1<
1(
