Lab 2/Lab 2 ex4 - rotator/simulation/qsim/rotator_4bit.msim.vcd
$comment
	File created using the following command:
		vcd file rotator_4bit.msim.vcd -direction
$end
$date
	Wed Feb 13 00:03:19 2019
$end
$version
	ModelSim Version 10.5b
$end
$timescale
	1ps
$end

$scope module rotator_4bit_vhd_vec_tst $end
$var wire 1 ! A [3] $end
$var wire 1 " A [2] $end
$var wire 1 # A [1] $end
$var wire 1 $ A [0] $end
$var wire 1 % L $end
$var wire 1 & shift [1] $end
$var wire 1 ' shift [0] $end
$var wire 1 ( Y [3] $end
$var wire 1 ) Y [2] $end
$var wire 1 * Y [1] $end
$var wire 1 + Y [0] $end

$scope module i1 $end
$var wire 1 , gnd $end
$var wire 1 - vcc $end
$var wire 1 . unknown $end
$var wire 1 / devoe $end
$var wire 1 0 devclrn $end
$var wire 1 1 devpor $end
$var wire 1 2 ww_devoe $end
$var wire 1 3 ww_devclrn $end
$var wire 1 4 ww_devpor $end
$var wire 1 5 ww_A [3] $end
$var wire 1 6 ww_A [2] $end
$var wire 1 7 ww_A [1] $end
$var wire 1 8 ww_A [0] $end
$var wire 1 9 ww_L $end
$var wire 1 : ww_shift [1] $end
$var wire 1 ; ww_shift [0] $end
$var wire 1 < ww_Y [3] $end
$var wire 1 = ww_Y [2] $end
$var wire 1 > ww_Y [1] $end
$var wire 1 ? ww_Y [0] $end
$var wire 1 @ \Y[0]~output_o\ $end
$var wire 1 A \Y[1]~output_o\ $end
$var wire 1 B \Y[2]~output_o\ $end
$var wire 1 C \Y[3]~output_o\ $end
$var wire 1 D \A[1]~input_o\ $end
$var wire 1 E \shift[1]~input_o\ $end
$var wire 1 F \L~input_o\ $end
$var wire 1 G \shift[0]~input_o\ $end
$var wire 1 H \mux_0|Y~0_combout\ $end
$var wire 1 I \A[3]~input_o\ $end
$var wire 1 J \mux_0|Y~1_combout\ $end
$var wire 1 K \A[0]~input_o\ $end
$var wire 1 L \mux_0|Y~2_combout\ $end
$var wire 1 M \A[2]~input_o\ $end
$var wire 1 N \mux_0|Y~3_combout\ $end
$var wire 1 O \mux_1|Y~0_combout\ $end
$var wire 1 P \mux_1|Y~1_combout\ $end
$var wire 1 Q \mux_2|Y~0_combout\ $end
$var wire 1 R \mux_2|Y~1_combout\ $end
$var wire 1 S \mux_3|Y~0_combout\ $end
$var wire 1 T \mux_3|Y~1_combout\ $end
$upscope $end
$upscope $end
$enddefinitions $end
#0
$dumpvars
1%
0,
1-
x.
1/
10
11
12
13
14
19
0@
0A
0B
0C
0D
1E
1F
0G
1H
0I
1J
0K
1L
0M
0N
1O
0P
1Q
0R
1S
0T
0!
0"
0#
0$
1&
0'
0(
0)
0*
0+
05
06
07
08
1:
0;
0<
0=
0>
0?
$end
#62500
1$
0%
0&
1'
18
09
1;
0:
0E
1G
0F
1K
1R
0J
0L
0O
1P
0Q
1T
0R
0P
1B
1=
1C
1A
1)
1<
1>
0A
0B
1*
1(
0>
0=
0*
0)
#125000
0$
0'
1#
08
17
0;
0G
1D
0K
0S
1N
0H
0N
1O
0T
1P
1@
1?
0C
0@
1+
0<
0?
1A
0+
0(
1>
1*
#187500
1$
1'
1%
18
1;
19
1F
1G
1K
1L
1J
0L
0O
0P
1Q
1N
1R
1P
0N
1@
0A
1?
0>
0@
1A
1B
1+
0*
0?
1>
1=
0+
1*
1)
#250000
0$
0'
0#
1&
1"
08
07
16
0;
1:
1E
0G
1M
0D
0K
0P
0Q
1T
1H
1L
1O
1Q
1S
0R
0T
1N
1C
0A
1<
0>
0B
0*
1(
0=
1@
0C
0)
1?
0<
1+
0(
#312500
1$
1'
0&
18
1;
0:
0E
1G
1K
1R
0H
0L
0O
0Q
0S
1T
0R
1P
0N
1B
1=
1)
0@
1A
0B
1C
0?
1>
0=
1<
0+
1*
0)
1(
#375000
0$
1#
08
17
1D
0K
0P
1Q
1R
0A
0>
1B
0*
1=
1)
#437500
1$
0%
18
09
0F
1K
1P
1H
0J
0P
0T
1N
1O
0Q
1S
1T
0R
1P
1A
1>
1@
0C
0A
1*
1?
0<
0>
1A
0B
1C
1+
0*
0(
1>
0=
1<
1*
0)
1(
#500000
0$
1%
0#
0"
1!
08
07
06
15
19
1F
1I
0M
0D
0K
0N
0O
1R
0S
0H
1J
1L
0R
0T
0P
1N
1B
0@
1=
0?
0A
0C
0B
0+
1)
0>
0<
0=
1@
0*
0)
0(
1?
1+
#562500
1$
0'
18
0;
0G
1K
1P
0J
0P
1S
1T
1A
1>
0A
1*
0>
1C
0*
1<
1(
#625000
0$
0%
1#
1&
08
17
09
1:
1E
0F
1D
0K
0L
1O
1H
1J
1L
1Q
1R
1P
0R
0N
1A
1B
1>
1=
0@
0B
1*
1)
0?
0=
0+
0)
#687500
1$
1%
18
19
1F
1K
1R
1B
1=
1)
#750000
0$
0#
1'
1"
08
07
16
1;
1G
1M
0D
0K
0R
1N
0T
0J
0L
0Q
0S
1T
0T
1R
0N
0C
1@
0B
0<
1?
0=
1C
1+
0)
0(
1<
0@
1B
0C
1(
0?
1=
0<
0+
1)
0(
#812500
1$
0'
0%
18
0;
09
0F
0G
1K
1S
1J
1L
1Q
1N
1@
1?
1+
#875000
0$
1#
08
17
1D
0K
0R
1T
1C
0B
1<
0=
0)
1(
#937500
1$
1%
18
19
1F
1K
1R
1B
1=
1)
